<?xml version="1.0" encoding="UTF-8" standalone="no"?>
<svg width="492px" height="300px" viewBox="0 0 492 300" version="1.1" xmlns="http://www.w3.org/2000/svg" xmlns:xlink="http://www.w3.org/1999/xlink">
    <!-- Generator: Sketch 3.7.1 (28215) - http://www.bohemiancoding.com/sketch -->
    <title>Stap 7</title>
    <desc>Created with Sketch.</desc>
    <defs></defs>
    <g id="Page-1" stroke="none" stroke-width="1" fill="none" fill-rule="evenodd">
        <g id="Stap-7">
            <g id="stappenmvp_07" transform="translate(82.000000, 20.000000)">
                <g id="Layer_1">
                    <g id="XMLID_8_">
                        <g id="XMLID_2000_" transform="translate(3.226230, 0.000000)">
                            <path d="M97.0019672,203.644444 C107.648525,203.644444 116.144262,212.237037 116.144262,222.762963 L116.144262,241.022222 C116.144262,251.655556 124.747541,260.140741 135.286557,260.140741 L229.815082,260.140741 C240.461639,260.140741 248.957377,251.548148 248.957377,241.022222 L248.957377,216.962963 C248.957377,206.32963 257.560656,197.844444 268.099672,197.844444 L304.98623,197.844444 C315.632787,197.844444 324.128525,189.251852 324.128525,178.725926 L324.128525,149.081481 C324.128525,138.448148 315.525246,129.962963 304.98623,129.962963 L230.67541,129.962963 L19.1422951,129.962963 C8.4957377,129.962963 0,138.555556 0,149.081481 L0,181.088889 C0,193.548148 10.1088525,203.644444 22.5836066,203.644444 L97.0019672,203.644444 L97.0019672,203.644444 L97.0019672,203.644444 Z" id="XMLID_2297_" fill="#DEE57B"></path>
                            <g id="XMLID_2078_" transform="translate(33.337705, 0.000000)">
                                <g id="XMLID_2079_">
                                    <g id="XMLID_2271_" transform="translate(226.911475, 92.370370)">
                                        <g id="XMLID_2283_" transform="translate(0.000000, 64.444444)" fill="#85A600">
                                            <path d="M-2.84217094e-14,21.0518519 L-2.84217094e-14,18.1518519 L5.16196721,18.1518519 C3.76393443,16.2185185 2.90360656,13.8555556 2.90360656,11.3851852 C2.90360656,5.04814815 8.06557377,3.01980663e-14 14.3029508,3.01980663e-14 C20.5403279,3.01980663e-14 25.7022951,5.15555556 25.7022951,11.3851852 C25.7022951,12.137037 25.5947541,12.8888889 25.4872131,13.5333333 C26.455082,13.2111111 27.4229508,12.9962963 28.4983607,12.9962963 C33.015082,12.9962963 36.5639344,16.6481481 36.5639344,21.0518519 L36.5639344,21.0518519 L-2.84217094e-14,21.0518519 L-2.84217094e-14,21.0518519 Z" id="XMLID_2284_"></path>
                                        </g>
                                        <g id="XMLID_2281_" transform="translate(33.337705, 81.629630)" fill="#85A600">
                                            <path d="M0,4.83333333 C0.967868852,2.04074074 3.54885246,0 6.66754098,0 C9.78622951,0 12.3672131,2.04074074 13.335082,4.83333333 L0,4.83333333 L0,4.83333333 Z" id="XMLID_2282_"></path>
                                        </g>
                                        <g id="XMLID_2272_" transform="translate(18.281967, 0.000000)">
                                            <g id="XMLID_2277_" transform="translate(17.206557, 68.740741)" fill="#55241A">
                                                <g id="XMLID_2278_">
                                                    <g id="XMLID_2279_">
                                                        <rect id="XMLID_2280_" x="0" y="3.01980663e-14" width="2.68852459" height="16.7555556"></rect>
                                                    </g>
                                                </g>
                                            </g>
                                            <g id="XMLID_2275_" fill="#9EC300">
                                                <path d="M16.2386885,70.3518519 L18.2819672,70.3518519 C27.2078689,70.3518519 34.5206557,63.1555556 34.5206557,54.1333333 L34.5206557,16.2185185 C34.5206557,7.3037037 27.3154098,1.42108547e-14 18.2819672,1.42108547e-14 L16.2386885,1.42108547e-14 C7.31278689,1.42108547e-14 0,7.1962963 0,16.2185185 L0,54.1333333 C6.11299718e-14,63.1555556 7.2052459,70.3518519 16.2386885,70.3518519 L16.2386885,70.3518519 Z" id="XMLID_2276_"></path>
                                            </g>
                                            <g id="XMLID_2273_" transform="translate(1.075410, 0.000000)" fill="#C0CE06">
                                                <path d="M17.1001232,1.42108547e-14 L17.1001232,1.42108547e-14 C25.058156,1.42108547e-14 31.725697,5.37037037 33.7689757,12.7814815 C32.2634019,8.80740741 28.4994675,6.01481481 23.9827462,6.01481481 C18.1755331,6.01481481 13.5512708,10.6333333 13.5512708,16.4333333 L13.5512708,46.2925926 C13.5512708,52.0925926 8.81946751,56.7111111 3.11979538,56.7111111 L3.11979538,56.7111111 C2.15192652,56.7111111 1.18405767,56.6037037 0.323729802,56.2814815 C0.108647834,55.3148148 0.00110685072,54.2407407 0.00110685072,53.1666667 L0.00110685072,17.1851852 C-0.106434133,7.73333333 7.63651669,1.42108547e-14 17.1001232,1.42108547e-14 L17.1001232,1.42108547e-14 Z" id="XMLID_2274_"></path>
                                            </g>
                                        </g>
                                    </g>
                                    <g id="XMLID_2253_" transform="translate(67.750820, 56.925926)">
                                        <rect id="XMLID_2270_" fill="#FFC92F" x="26.8852459" y="-7.10542736e-15" width="141.308852" height="121.262963"></rect>
                                        <path d="M144.32,31.1481481 L22.5836066,31.1481481 L22.5836066,121.155556 L150.88,121.155556 L150.88,37.7 C150.88,34.0481481 147.976393,31.1481481 144.32,31.1481481 L144.32,31.1481481 Z" id="XMLID_2269_" fill="#F8B000"></path>
                                        <path d="M153.353443,85.3888889 C154.10623,84.1 154.536393,82.5962963 154.536393,80.9851852 C154.536393,76.0444444 150.557377,71.962963 145.502951,71.962963 C140.556066,71.962963 136.577049,75.937037 136.577049,80.9851852 C136.577049,84.5296296 138.620328,87.537037 141.523934,88.9333333 C140.771148,90.2222222 140.340984,91.7259259 140.340984,93.337037 C140.340984,98.2777778 144.32,102.359259 149.266885,102.359259 C154.21377,102.359259 158.300328,98.3851852 158.300328,93.337037 C158.300328,89.7925926 156.257049,86.7851852 153.353443,85.3888889 L153.353443,85.3888889 Z" id="XMLID_2268_" fill="#F8B000"></path>
                                        <path d="M146.900984,85.3888889 C147.65377,84.1 148.083934,82.5962963 148.083934,80.9851852 C148.083934,76.0444444 144.104918,71.962963 139.050492,71.962963 C134.103607,71.962963 130.12459,75.937037 130.12459,80.9851852 C130.12459,84.5296296 132.167869,87.537037 135.071475,88.9333333 C134.318689,90.2222222 133.888525,91.7259259 133.888525,93.337037 C133.888525,98.2777778 137.867541,102.359259 142.814426,102.359259 C147.761311,102.359259 151.847869,98.3851852 151.847869,93.337037 C151.847869,89.7925926 149.80459,86.7851852 146.900984,85.3888889 L146.900984,85.3888889 Z" id="XMLID_2267_" fill="#9EC300"></path>
                                        <g id="XMLID_2263_" transform="translate(0.000000, 18.259259)">
                                            <path d="M5.37704918,96.5592593 L5.37704918,6.55185185 C5.37704918,2.9 8.28065574,1.42108547e-14 11.9370492,1.42108547e-14 L135.931803,1.42108547e-14 C139.588197,1.42108547e-14 142.491803,2.9 142.491803,6.55185185 L142.491803,96.5592593 C142.491803,100.211111 139.588197,103.111111 135.931803,103.111111 L11.9370492,103.111111 C8.28065574,103.111111 5.37704918,100.103704 5.37704918,96.5592593 L5.37704918,96.5592593 Z" id="XMLID_2266_" fill="#84D0F0"></path>
                                            <path d="M0,96.5592593 L0,6.55185185 C0,2.9 2.90360656,1.42108547e-14 6.56,1.42108547e-14 L130.554754,1.42108547e-14 C134.211148,1.42108547e-14 137.114754,2.9 137.114754,6.55185185 L137.114754,96.5592593 C137.114754,100.211111 134.211148,103.111111 130.554754,103.111111 L6.56,103.111111 C3.01114754,103.111111 0,100.103704 0,96.5592593 L0,96.5592593 Z" id="XMLID_2265_" fill="#00AAE6"></path>
                                            <rect id="XMLID_2264_" fill="#55241A" x="6.45245902" y="7.51851852" width="124.317377" height="88.9333333"></rect>
                                        </g>
                                        <rect id="XMLID_2262_" fill="#85A600" x="30.1114754" y="25.7777778" width="100.765902" height="88.9333333"></rect>
                                        <rect id="XMLID_2261_" fill="#55241A" x="41.9409836" y="25.7777778" width="26.24" height="19.0111111"></rect>
                                        <rect id="XMLID_2260_" fill="#C0CE06" x="26.8852459" y="26.8518519" width="5.2695082" height="87.1074074"></rect>
                                        <rect id="XMLID_2259_" fill="#9EC300" x="26.8852459" y="25.7777778" width="5.2695082" height="2.9"></rect>
                                        <rect id="XMLID_2258_" fill="#C0CE06" x="93.5606557" y="25.7777778" width="5.2695082" height="31.0407407"></rect>
                                        <rect id="XMLID_2257_" fill="#9EC300" x="93.5606557" y="25.7777778" width="5.2695082" height="2.9"></rect>
                                        <rect id="XMLID_2256_" fill="#C0CE06" x="29.0360656" y="52.6296296" width="101.73377" height="5.26296296"></rect>
                                        <rect id="XMLID_2255_" fill="#9EC300" x="119.370492" y="52.6296296" width="11.2918033" height="5.26296296"></rect>
                                        <rect id="XMLID_2254_" fill="#55241A" x="41.9409836" y="71.962963" width="48.7160656" height="32.2222222"></rect>
                                    </g>
                                    <g id="XMLID_2239_" transform="translate(52.695082, 126.740741)">
                                        <path d="M9.67868852,55.3148148 L37.6393443,55.3148148 L37.6393443,5.15555556 C37.6393443,2.25555556 35.2734426,1.42108547e-14 32.477377,1.42108547e-14 L14.9481967,1.42108547e-14 C12.0445902,1.42108547e-14 9.78622951,2.36296296 9.78622951,5.15555556 L9.67868852,55.3148148 L9.67868852,55.3148148 L9.67868852,55.3148148 Z" id="XMLID_2252_" fill="#84D0F0"></path>
                                        <path d="M0,55.3148148 L27.9606557,55.3148148 L27.9606557,5.15555556 C27.9606557,2.25555556 25.5947541,1.42108547e-14 22.7986885,1.42108547e-14 L5.2695082,1.42108547e-14 C2.36590164,1.42108547e-14 0.107540984,2.36296296 0.107540984,5.15555556 L0,55.3148148 L0,55.3148148 L0,55.3148148 Z" id="XMLID_2251_" fill="#00AAE6"></path>
                                        <path d="M22.3685246,30.9333333 L22.3685246,30.9333333 C20.6478689,30.9333333 19.357377,29.537037 19.357377,27.8185185 L19.357377,27.8185185 C19.357377,26.1 20.7554098,24.7037037 22.4760656,24.7037037 L22.4760656,24.7037037 C24.1967213,24.7037037 25.5947541,26.1 25.5947541,27.8185185 L25.5947541,27.8185185 C25.4872131,29.537037 24.0891803,30.9333333 22.3685246,30.9333333 L22.3685246,30.9333333 Z" id="XMLID_2250_" fill="#84D0F0"></path>
                                        <path d="M12.6898361,30.9333333 L12.6898361,30.9333333 C10.9691803,30.9333333 9.67868852,29.537037 9.67868852,27.8185185 L9.67868852,27.8185185 C9.67868852,26.1 11.0767213,24.7037037 12.797377,24.7037037 L12.797377,24.7037037 C14.5180328,24.7037037 15.9160656,26.1 15.9160656,27.8185185 L15.9160656,27.8185185 C15.8085246,29.537037 14.4104918,30.9333333 12.6898361,30.9333333 L12.6898361,30.9333333 Z" id="XMLID_2249_" fill="#84D0F0"></path>
                                        <path d="M4.08655738,30.9333333 L4.08655738,30.9333333 C2.36590164,30.9333333 1.07540984,29.537037 1.07540984,27.8185185 L1.07540984,27.8185185 C1.07540984,26.1 2.47344262,24.7037037 4.19409836,24.7037037 L4.19409836,24.7037037 C5.9147541,24.7037037 7.31278689,26.1 7.31278689,27.8185185 L7.31278689,27.8185185 C7.2052459,29.537037 5.80721311,30.9333333 4.08655738,30.9333333 L4.08655738,30.9333333 Z" id="XMLID_2247_" fill="#84D0F0"></path>
                                        <path d="M22.2609836,39.5259259 L4.19409836,39.5259259 C2.47344262,39.5259259 1.07540984,38.1296296 1.07540984,36.4111111 L1.07540984,36.4111111 C1.07540984,34.6925926 2.47344262,33.2962963 4.19409836,33.2962963 L22.2609836,33.2962963 C23.9816393,33.2962963 25.3796721,34.6925926 25.3796721,36.4111111 L25.3796721,36.4111111 C25.3796721,38.1296296 23.9816393,39.5259259 22.2609836,39.5259259 L22.2609836,39.5259259 Z" id="XMLID_2246_" fill="#84D0F0"></path>
                                        <path d="M22.3685246,30.0740741 L20.4327869,30.0740741 C19.2498361,30.0740741 18.2819672,29.1074074 18.2819672,27.9259259 L18.2819672,27.9259259 C18.2819672,26.7444444 19.2498361,25.7777778 20.4327869,25.7777778 L22.2609836,25.7777778 C23.4439344,25.7777778 24.4118033,26.7444444 24.4118033,27.9259259 L24.4118033,27.9259259 C24.4118033,29.1074074 23.4439344,30.0740741 22.3685246,30.0740741 L22.3685246,30.0740741 Z" id="XMLID_2245_" fill="#F6861E"></path>
                                        <path d="M12.5822951,30.0740741 L10.7540984,30.0740741 C9.57114754,30.0740741 8.60327869,29.1074074 8.60327869,27.9259259 L8.60327869,27.9259259 C8.60327869,26.7444444 9.57114754,25.7777778 10.7540984,25.7777778 L12.5822951,25.7777778 C13.7652459,25.7777778 14.7331148,26.7444444 14.7331148,27.9259259 L14.7331148,27.9259259 C14.6255738,29.1074074 13.6577049,30.0740741 12.5822951,30.0740741 L12.5822951,30.0740741 Z" id="XMLID_2244_" fill="#FFBA2F"></path>
                                        <path d="M4.08655738,30.0740741 L2.15081967,30.0740741 C0.967868852,30.0740741 0,29.1074074 0,27.9259259 L0,27.9259259 C0,26.7444444 0.967868852,25.7777778 2.15081967,25.7777778 L3.97901639,25.7777778 C5.16196721,25.7777778 6.12983607,26.7444444 6.12983607,27.9259259 L6.12983607,27.9259259 C6.12983607,29.1074074 5.16196721,30.0740741 4.08655738,30.0740741 L4.08655738,30.0740741 Z" id="XMLID_2243_" fill="#FFC92F"></path>
                                        <path d="M4.30163934,36.5185185 L21.1855738,36.5185185" id="XMLID_2242_" stroke="#55241A" stroke-width="2"></path>
                                        <rect id="XMLID_2241_" fill="#55241A" x="2.15081967" y="4.2962963" width="21.8308197" height="16.6481481"></rect>
                                        <path d="M4.30163934,13.792048 L6.99016393,10.5698258 C8.06557377,9.28093692 10.1088525,9.38834433 10.9691803,10.7846406 L12.1521311,12.717974 C13.012459,14.1142703 14.9481967,14.2216777 16.0236066,13.1476036 L17.0990164,12.0735295 C17.8518033,11.3216777 18.9272131,11.1068628 19.787541,11.5364925 L22.9062295,12.8253814" id="XMLID_2240_" stroke="#9EC300"></path>
                                    </g>
                                    <polygon id="XMLID_2238_" fill="#F6861E" points="208.306885 6.44444444 122.059016 6.44444444 87.1081967 53.1666667 243.150164 53.1666667"></polygon>
                                    <g id="XMLID_2209_" transform="translate(120.445902, 12.888889)">
                                        <g id="XMLID_2235_" transform="translate(4.301639, 7.518519)" fill="#55241A">
                                            <g id="XMLID_2236_">
                                                <rect id="XMLID_2237_" x="-2.84217094e-14" y="3.55271368e-15" width="49.2537705" height="24.8111111"></rect>
                                            </g>
                                        </g>
                                        <g id="XMLID_2232_" transform="translate(4.301639, 7.518519)" fill="#00AAE6">
                                            <g id="XMLID_2233_">
                                                <path d="M0,13.7481481 C1.18295082,13.5333333 1.39803279,12.6740741 3.01114754,12.6740741 C4.83934426,12.6740741 4.83934426,13.8555556 6.66754098,13.8555556 C8.4957377,13.8555556 8.4957377,12.6740741 10.3239344,12.6740741 C12.1521311,12.6740741 12.1521311,13.8555556 13.9803279,13.8555556 C15.8085246,13.8555556 15.8085246,12.6740741 17.6367213,12.6740741 C19.464918,12.6740741 19.464918,13.8555556 21.2931148,13.8555556 C23.1213115,13.8555556 23.1213115,12.6740741 24.9495082,12.6740741 C26.7777049,12.6740741 26.7777049,13.8555556 28.6059016,13.8555556 C30.4340984,13.8555556 30.4340984,12.6740741 32.2622951,12.6740741 C34.0904918,12.6740741 34.0904918,13.8555556 35.9186885,13.8555556 C37.7468852,13.8555556 37.7468852,12.6740741 39.575082,12.6740741 C41.4032787,12.6740741 41.4032787,13.8555556 43.2314754,13.8555556 C45.0596721,13.8555556 45.0596721,12.6740741 46.8878689,12.6740741 C48.0708197,12.6740741 48.5009836,13.2111111 49.2537705,13.5333333 L49.2537705,3.55271368e-15 L9.16949576e-14,3.55271368e-15 L0,13.7481481 L0,13.7481481 L0,13.7481481 Z" id="XMLID_2234_"></path>
                                            </g>
                                        </g>
                                        <g id="XMLID_2229_" transform="translate(4.301639, 8.592593)" fill="#1B98E9">
                                            <g id="XMLID_2230_">
                                                <rect id="XMLID_2231_" x="-2.84217094e-14" y="0" width="48.7160656" height="2.25555556"></rect>
                                            </g>
                                        </g>
                                        <g id="XMLID_2226_" opacity="0.12" transform="translate(4.301639, 7.518519)" fill="#FFFFFF">
                                            <g id="XMLID_2227_">
                                                <polygon id="XMLID_2228_" points="-2.84217094e-14 24.8111111 18.0668852 24.8111111 42.8013115 -3.55271368e-15 20.002623 -3.55271368e-15 -2.84217094e-14 19.9777778"></polygon>
                                            </g>
                                        </g>
                                        <g id="XMLID_2219_" transform="translate(2.150820, 6.444444)" fill="#FFFFFF">
                                            <g id="XMLID_2220_">
                                                <g id="XMLID_2222_">
                                                    <path d="M52.157377,27.7111111 L0,27.7111111 L0,0 L52.157377,0 L52.157377,27.7111111 L52.157377,27.7111111 Z M3.01114754,24.7037037 L49.3613115,24.7037037 L49.3613115,2.9 L3.01114754,2.9 L3.01114754,24.7037037 L3.01114754,24.7037037 L3.01114754,24.7037037 Z" id="XMLID_2223_"></path>
                                                </g>
                                            </g>
                                        </g>
                                        <g id="XMLID_2216_" transform="translate(26.885246, 7.518519)" fill="#FFFFFF">
                                            <g id="XMLID_2217_">
                                                <rect id="XMLID_2218_" x="0" y="3.55271368e-15" width="2.90360656" height="24.8111111"></rect>
                                            </g>
                                        </g>
                                        <g id="XMLID_2213_" transform="translate(2.150820, 6.444444)" fill="#E1F5F5">
                                            <g id="XMLID_2214_">
                                                <rect id="XMLID_2215_" x="0" y="0" width="52.157377" height="2.9"></rect>
                                            </g>
                                        </g>
                                        <g id="XMLID_2210_" fill="#FFFFFF">
                                            <g id="XMLID_2211_">
                                                <rect id="XMLID_2212_" x="0" y="-3.55271368e-15" width="55.9213115" height="6.22962963"></rect>
                                            </g>
                                        </g>
                                    </g>
                                    <g id="XMLID_2202_" transform="translate(183.895082, 0.000000)">
                                        <g id="XMLID_2206_" fill="#FFC92F">
                                            <g id="XMLID_2207_">
                                                <rect id="XMLID_2208_" x="0" y="0" width="15.8085246" height="18.3666667"></rect>
                                            </g>
                                        </g>
                                        <g id="XMLID_2203_" transform="translate(0.000000, 18.259259)" fill="#FFFFFF">
                                            <g id="XMLID_2204_">
                                                <rect id="XMLID_2205_" x="0" y="-3.55271368e-15" width="15.8085246" height="1.93333333"></rect>
                                            </g>
                                        </g>
                                    </g>
                                    <rect id="XMLID_2201_" fill="#F8B000" x="94.6360656" y="56.9259259" width="141.308852" height="5.15555556"></rect>
                                    <g id="XMLID_2196_" transform="translate(217.232787, 66.592593)" fill="#F8B000">
                                        <g id="XMLID_2198_">
                                            <path d="M6.56,2.79259259 L0.645245902,2.79259259 C0.322622951,2.79259259 0,2.47037037 0,2.14814815 L0,0.644444444 C0,0.322222222 0.322622951,0 0.645245902,0 L6.56,0 C6.88262295,0 7.2052459,0.322222222 7.2052459,0.644444444 L7.2052459,2.14814815 C7.2052459,2.47037037 6.88262295,2.79259259 6.56,2.79259259 L6.56,2.79259259 Z" id="XMLID_2200_"></path>
                                            <path d="M15.1632787,2.79259259 L9.24852459,2.79259259 C8.92590164,2.79259259 8.60327869,2.47037037 8.60327869,2.14814815 L8.60327869,0.644444444 C8.60327869,0.322222222 8.92590164,0 9.24852459,0 L15.1632787,0 C15.4859016,0 15.8085246,0.322222222 15.8085246,0.644444444 L15.8085246,2.14814815 C15.8085246,2.47037037 15.4859016,2.79259259 15.1632787,2.79259259 L15.1632787,2.79259259 Z" id="XMLID_2199_"></path>
                                        </g>
                                        <path d="M10.8616393,7.08888889 L4.94688525,7.08888889 C4.6242623,7.08888889 4.30163934,6.76666667 4.30163934,6.44444444 L4.30163934,4.94074074 C4.30163934,4.61851852 4.6242623,4.2962963 4.94688525,4.2962963 L10.8616393,4.2962963 C11.1842623,4.2962963 11.5068852,4.61851852 11.5068852,4.94074074 L11.5068852,6.44444444 C11.5068852,6.76666667 11.1842623,7.08888889 10.8616393,7.08888889 L10.8616393,7.08888889 Z" id="XMLID_2197_"></path>
                                    </g>
                                    <g id="XMLID_2191_" transform="translate(124.747541, 118.148148)" fill="#9EC300">
                                        <g id="XMLID_2193_" transform="translate(0.000000, 4.296296)">
                                            <path d="M9.24852459,0 L15.1632787,0 C15.4859016,0 15.8085246,0.322222222 15.8085246,0.644444444 L15.8085246,2.14814815 C15.8085246,2.47037037 15.4859016,2.79259259 15.1632787,2.79259259 L9.24852459,2.79259259 C8.92590164,2.79259259 8.60327869,2.47037037 8.60327869,2.14814815 L8.60327869,0.644444444 C8.71081967,0.214814815 8.92590164,0 9.24852459,0 L9.24852459,0 Z" id="XMLID_2195_"></path>
                                            <path d="M0.645245902,0 L6.56,0 C6.88262295,0 7.2052459,0.322222222 7.2052459,0.644444444 L7.2052459,2.14814815 C7.2052459,2.47037037 6.88262295,2.79259259 6.56,2.79259259 L0.645245902,2.79259259 C0.322622951,2.79259259 0,2.47037037 0,2.14814815 L0,0.644444444 C0.107540984,0.214814815 0.322622951,0 0.645245902,0 L0.645245902,0 Z" id="XMLID_2194_"></path>
                                        </g>
                                        <path d="M4.94688525,0 L10.8616393,0 C11.1842623,0 11.5068852,0.322222222 11.5068852,0.644444444 L11.5068852,2.14814815 C11.5068852,2.47037037 11.1842623,2.79259259 10.8616393,2.79259259 L4.94688525,2.79259259 C4.6242623,2.79259259 4.30163934,2.47037037 4.30163934,2.14814815 L4.30163934,0.644444444 C4.40918033,0.322222222 4.6242623,0 4.94688525,0 L4.94688525,0 Z" id="XMLID_2192_"></path>
                                    </g>
                                    <rect id="XMLID_2190_" fill="#C0CE06" x="109.691803" y="161.111111" width="48.7160656" height="2.36296296"></rect>
                                    <g id="XMLID_2131_" transform="translate(0.000000, 119.222222)">
                                        <g id="XMLID_2139_" transform="translate(6.452459, 1.074074)">
                                            <g id="XMLID_2174_" transform="translate(1.075410, 30.074074)" fill="#0072BA">
                                                <g id="XMLID_2187_" transform="translate(0.000000, 2.148148)">
                                                    <g id="XMLID_2188_">
                                                        <path id="XMLID_2189_"></path>
                                                    </g>
                                                </g>
                                                <g id="XMLID_2184_">
                                                    <g id="XMLID_2185_">
                                                        <path id="XMLID_2186_"></path>
                                                    </g>
                                                </g>
                                                <g id="XMLID_2181_" transform="translate(0.000000, 1.074074)">
                                                    <g id="XMLID_2182_">
                                                        <path id="XMLID_2183_"></path>
                                                    </g>
                                                </g>
                                                <g id="XMLID_2178_" transform="translate(8.603279, 1.074074)">
                                                    <g id="XMLID_2179_">
                                                        <path id="XMLID_2180_"></path>
                                                    </g>
                                                </g>
                                                <g id="XMLID_2175_" transform="translate(8.603279, 0.000000)">
                                                    <g id="XMLID_2176_">
                                                        <path id="XMLID_2177_"></path>
                                                    </g>
                                                </g>
                                            </g>
                                            <g id="XMLID_2169_" transform="translate(2.150820, 35.444444)" fill="#55241A">
                                                <path d="M8.38819672,4.72592593 L2.25836066,5.37037037 C1.18295082,5.47777778 0.322622951,4.72592593 0.215081967,3.65185185 L0,0.966666667 L9.89377049,2.93098879e-14 L10.1088525,2.68518519 C10.2163934,3.75925926 9.35606557,4.61851852 8.38819672,4.72592593 L8.38819672,4.72592593 Z" id="XMLID_2170_"></path>
                                            </g>
                                            <g id="XMLID_2167_" transform="translate(0.000000, 18.259259)" fill="#55241A">
                                                <path d="M11.9552199,16.6662963 L5.39521991,23.2181482 L0.233252699,23.97 L0.0181707323,4.8514815 C-0.196911235,2.48851853 1.5237445,0.447777792 3.78210516,0.232962977 L6.04046581,0.0181481625 C8.40636745,-0.196666652 10.4496461,1.52185187 10.6647281,3.77740742 L12.1703019,10.0070371 L11.9552199,16.6662963 L11.9552199,16.6662963 Z" id="XMLID_2168_"></path>
                                            </g>
                                            <g id="XMLID_2165_" transform="translate(2.150820, 13.962963)" fill="#F8B000">
                                                <polygon id="XMLID_2166_" points="4.83934426 4.94074074 4.08655738 6.65925926 0.215081967 5.26296296 0 0.214814815 4.73180328 0"></polygon>
                                            </g>
                                            <g id="XMLID_2161_" fill="#F8B000">
                                                <g id="XMLID_2162_">
                                                    <g id="XMLID_2163_">
                                                        <path d="M12.1521311,3.14593626 C11.9370492,3.14593626 11.8295082,3.14593626 11.7219672,2.93112144 C11.1842623,1.53482515 9.03344262,0.568158481 7.63540984,0.138528852 C5.2695082,-0.398508185 3.11868852,0.675565889 1.82819672,2.50149181 C1.72065574,2.60889922 1.61311475,2.71630663 1.39803279,2.60889922 C0.645245902,3.57556589 0.322622951,4.64963996 0.322622951,5.93852885 C0.322622951,7.01260293 0.537704918,7.97926959 0.430163934,9.05334367 C0.430163934,9.26815848 0.215081967,9.37556589 0,9.37556589 L0,11.3088992 C0,14.8533437 2.90360656,17.7533437 6.34491803,17.7533437 C9.89377049,17.7533437 12.797377,14.8533437 12.797377,11.4163066 L12.797377,6.15334367 C12.904918,4.97186219 12.5822951,4.00519552 12.1521311,3.14593626 L12.1521311,3.14593626 Z" id="XMLID_2164_"></path>
                                                    </g>
                                                </g>
                                            </g>
                                            <g id="XMLID_2157_" transform="translate(7.527869, 10.740741)" fill="#FFFFFF">
                                                <g id="XMLID_2158_">
                                                    <g id="XMLID_2159_">
                                                        <path d="M3.87147541,0 C3.87147541,1.07407407 3.01114754,1.93333333 1.9357377,1.93333333 C0.860327869,1.93333333 0,1.07407407 0,0 L3.87147541,0 L3.87147541,0 Z" id="XMLID_2160_"></path>
                                                    </g>
                                                </g>
                                            </g>
                                            <g id="XMLID_2154_" fill="#F6861E">
                                                <g id="XMLID_2155_">
                                                    <path d="M12.904918,3.43703704 C11.9370492,1.28888889 9.03344262,0 6.45245902,0 C2.90360656,0 0,2.9 0,6.33703704 L0,9.98888889 C0,9.98888889 0.967868852,10.0962963 2.25836066,9.55925926 C3.76393443,8.80740741 3.76393443,6.01481481 3.76393443,6.01481481 C3.76393443,6.01481481 8.4957377,5.8 9.67868852,5.47777778 C11.6144262,5.15555556 12.904918,3.43703704 12.904918,3.43703704 L12.904918,3.43703704 Z" id="XMLID_2156_"></path>
                                                </g>
                                            </g>
                                            <g id="XMLID_2151_" transform="translate(7.527869, 20.407407)" fill="#55241A">
                                                <g id="XMLID_2152_">
                                                    <path d="M5.16196721,6.22962963 C4.6242623,6.01481481 4.08655738,5.8 3.54885246,5.37037037 L7.10542736e-15,2.79259259 L2.04327869,0 L5.59213115,2.57777778 C6.34491803,3.11481481 7.31278689,3.11481481 8.06557377,2.68518519 L12.4747541,0.214814815 L14.1954098,3.22222222 L9.78622951,5.69259259 C8.38819672,6.55185185 6.66754098,6.76666667 5.16196721,6.22962963 L5.16196721,6.22962963 Z" id="XMLID_2153_"></path>
                                                </g>
                                            </g>
                                            <g id="XMLID_2148_" transform="translate(19.357377, 20.407407)" fill="#F8B000">
                                                <g id="XMLID_2149_">
                                                    <ellipse id="XMLID_2150_" cx="2.25836066" cy="2.25555556" rx="2.25836066" ry="2.25555556"></ellipse>
                                                </g>
                                            </g>
                                            <g id="XMLID_2146_" transform="translate(2.150820, 38.666667)" fill="#55241A">
                                                <polygon id="XMLID_2147_" points="3.97901639 0 5.37704918 10.2037037 5.37704918 10.4185185 5.37704918 10.5259259 4.40918033 22.4481481 1.50557377 22.3407407 1.82819672 10.4185185 1.82819672 10.7407407 0 0.644444444"></polygon>
                                            </g>
                                            <g id="XMLID_2144_" transform="translate(3.226230, 61.222222)" fill="#55241A">
                                                <path d="M6.02229508,0.214814815 L0,0 L0,1.3962963 L6.02229508,1.61111111 C6.45245902,1.61111111 6.77508197,1.28888889 6.77508197,0.966666667 C6.77508197,0.537037037 6.45245902,0.214814815 6.02229508,0.214814815 L6.02229508,0.214814815 Z" id="XMLID_2145_"></path>
                                            </g>
                                            <g id="XMLID_2142_" transform="translate(6.452459, 38.666667)" fill="#55241A">
                                                <polygon id="XMLID_2143_" points="4.08655738 0 5.37704918 10.2037037 5.37704918 10.4185185 5.37704918 10.5259259 4.40918033 22.4481481 1.50557377 22.3407407 1.82819672 10.4185185 1.82819672 10.7407407 0 0.644444444"></polygon>
                                            </g>
                                            <g id="XMLID_2140_" transform="translate(7.527869, 61.222222)" fill="#55241A">
                                                <path d="M6.02229508,0.214814815 L0,0 L0,1.3962963 L6.02229508,1.61111111 C6.45245902,1.61111111 6.77508197,1.28888889 6.77508197,0.966666667 C6.77508197,0.537037037 6.45245902,0.214814815 6.02229508,0.214814815 L6.02229508,0.214814815 Z" id="XMLID_2141_"></path>
                                            </g>
                                        </g>
                                        <ellipse id="XMLID_2138_" fill="#F6861E" cx="16.8839344" cy="2.9" rx="2.90360656" ry="2.9"></ellipse>
                                        <polygon id="XMLID_2137_" fill="#84D0F0" points="8.60327869 19.6555556 13.5501639 29.2148148 13.335082 39.6333333 16.4537705 38.5592593 14.4104918 25.7777778 13.227541 19.3333333 12.4747541 21.0518519"></polygon>
                                        <g id="XMLID_2134_" transform="translate(7.527869, 34.370370)" fill="#F8B000">
                                            <g id="XMLID_2135_">
                                                <ellipse id="XMLID_2136_" cx="2.25836066" cy="2.25555556" rx="2.25836066" ry="2.25555556"></ellipse>
                                            </g>
                                        </g>
                                        <g id="XMLID_2132_" transform="translate(0.000000, 20.407407)" fill="#55241A">
                                            <path d="M8.18046742,17.5137659 C6.88997562,17.5137659 4.09391004,17.2989511 2.05063135,15.4730252 C0.760139551,14.2915437 0.00735266532,12.6804326 0.00735266532,10.7470993 C-0.100188318,8.3841363 0.975221518,6.12858074 3.01850021,4.08784 C4.84669693,2.26191407 7.42768053,0.650802963 9.14833627,0.00635851852 C9.57850021,-0.101048889 10.2237461,1.18784 10.2237461,1.18784 L10.2237461,3.44339556 L10.5463691,3.44339556 C9.57850021,3.65821037 3.66374611,6.77302519 3.77128709,10.6396919 C3.77128709,11.6063585 4.09391004,12.250803 4.63161496,12.6804326 C5.81456578,13.7545067 7.85784447,13.8619141 8.61063135,13.7545067 L8.82571332,17.4063585 C8.71817234,17.5137659 8.50309037,17.5137659 8.18046742,17.5137659 L8.18046742,17.5137659 Z" id="XMLID_2133_"></path>
                                        </g>
                                    </g>
                                    <rect id="XMLID_2130_" fill="#FFFFFF" x="106.465574" y="68.7407407" width="32.0472131" height="6.98148148"></rect>
                                    <rect id="XMLID_2129_" fill="#55241A" x="109.691803" y="70.8888889" width="26.24" height="3.97407407"></rect>
                                    <rect id="XMLID_2128_" fill="#55241A" x="109.691803" y="82.7037037" width="26.24" height="19.0111111"></rect>
                                    <rect id="XMLID_2127_" fill="#FFFFFF" x="173.140984" y="68.7407407" width="32.0472131" height="6.98148148"></rect>
                                    <rect id="XMLID_2126_" fill="#55241A" x="175.291803" y="70.8888889" width="26.24" height="3.97407407"></rect>
                                    <rect id="XMLID_2125_" fill="#55241A" x="175.291803" y="82.7037037" width="22.5836066" height="19.0111111"></rect>
                                    <rect id="XMLID_2124_" fill="#FFFFFF" x="94.6360656" y="52.6296296" width="141.308852" height="4.51111111"></rect>
                                    <polygon id="XMLID_2123_" fill="#FFFFFF" opacity="0.12" points="135.824262 74.862963 136.469508 74.2185185 136.469508 70.8888889 117.00459 70.8888889 112.918033 74.862963"></polygon>
                                    <path d="M69.3639344,177.32963 C69.3639344,179.585185 67.5357377,181.303704 65.384918,181.303704 L49.4688525,181.303704 L49.8990164,181.303704 C52.157377,181.303704 53.8780328,179.477778 53.8780328,177.32963 L53.8780328,167.340741 C53.8780328,165.085185 55.7062295,163.259259 57.9645902,163.259259 L73.4504918,163.259259 L73.4504918,163.259259 C71.1921311,163.259259 69.3639344,165.085185 69.3639344,167.340741 L69.3639344,177.32963 L69.3639344,177.32963 Z" id="XMLID_2122_" fill="#FFFFFF"></path>
                                    <path d="M35.1659016,178.081481 C35.1659016,180.337037 36.9940984,182.055556 39.144918,182.055556 L55.0609836,182.055556 L54.7383607,182.055556 C52.48,182.055556 50.7593443,180.22963 50.7593443,178.081481 L50.7593443,144.785185 C50.7593443,142.52963 48.9311475,140.703704 46.6727869,140.703704 L31.1868852,140.703704 L31.1868852,140.703704 C33.4452459,140.703704 35.2734426,142.52963 35.2734426,144.785185 L35.1659016,178.081481 L35.1659016,178.081481 L35.1659016,178.081481 Z" id="XMLID_2121_" fill="#84D0F0"></path>
                                    <path d="M42.4786885,159.92963 L42.4786885,144.785185 C42.4786885,142.52963 44.3068852,140.703704 46.5652459,140.703704 L30.9718033,140.703704 C28.7134426,140.703704 26.8852459,142.52963 26.8852459,144.785185 L26.8852459,159.92963 L42.4786885,159.92963 L42.4786885,159.92963 Z" id="XMLID_2120_" fill="#FFFFFF"></path>
                                    <path d="M27.9606557,145 L38.9298361,145" id="XMLID_2119_" stroke="#55241A"></path>
                                    <path d="M27.9606557,148.222222 L36.1337705,148.222222" id="XMLID_2118_" stroke="#55241A"></path>
                                    <path d="M27.9606557,151.444444 L38.9298361,151.444444" id="XMLID_2117_" stroke="#55241A"></path>
                                    <path d="M27.9606557,154.666667 L37.5318033,154.666667" id="XMLID_2116_" stroke="#55241A"></path>
                                    <g id="XMLID_2114_" transform="translate(26.885246, 139.629630)" fill="#F8B000">
                                        <path d="M0.0279745918,1.31682873 L0.0279745918,1.31682873 C-0.0795663918,0.994606511 0.135515575,0.672384289 0.458138526,0.564976882 L3.03912213,0.0279398447 C3.36174508,-0.0794675627 3.68436803,0.135347252 3.79190902,0.457569474 L3.79190902,0.457569474 C3.89945,0.779791697 3.68436803,1.10201392 3.36174508,1.20942133 L0.780761477,1.74645836 C0.458138526,1.85386577 0.135515575,1.63905096 0.0279745918,1.31682873 L0.0279745918,1.31682873 Z" id="XMLID_2115_"></path>
                                    </g>
                                    <g id="XMLID_2080_" transform="translate(176.367213, 123.518519)">
                                        <g id="XMLID_2082_">
                                            <g id="XMLID_2111_" transform="translate(16.131148, 38.740741)" fill="#55241A">
                                                <g id="XMLID_2112_">
                                                    <rect id="XMLID_2113_" transform="translate(3.576050, 4.567483) rotate(-44.935177) translate(-3.576050, -4.567483) " x="-0.241621176" y="3.3323092" width="7.6353415" height="2.47034826"></rect>
                                                </g>
                                            </g>
                                            <g id="XMLID_2108_" transform="translate(13.980328, 34.370370)" fill="#55241A">
                                                <g id="XMLID_2109_">
                                                    <rect id="XMLID_2110_" transform="translate(2.568654, 8.148619) rotate(-9.630930) translate(-2.568654, -8.148619) " x="1.33194008" y="0.0931110788" width="2.47342791" height="16.1110152"></rect>
                                                </g>
                                            </g>
                                            <g id="XMLID_2083_">
                                                <g id="XMLID_2105_" transform="translate(0.000000, 10.740741)" fill="#E3E98F">
                                                    <g id="XMLID_2106_">
                                                        <ellipse id="XMLID_2107_" cx="8.71081967" cy="8.7" rx="8.71081967" ry="8.7"></ellipse>
                                                    </g>
                                                </g>
                                                <g id="XMLID_2102_" transform="translate(2.150820, 23.629630)" fill="#E3E98F">
                                                    <g id="XMLID_2103_">
                                                        <ellipse id="XMLID_2104_" cx="8.71081967" cy="8.7" rx="8.71081967" ry="8.7"></ellipse>
                                                    </g>
                                                </g>
                                                <g id="XMLID_2099_" transform="translate(7.527869, 0.000000)" fill="#E3E98F">
                                                    <g id="XMLID_2100_">
                                                        <ellipse id="XMLID_2101_" cx="9.03344262" cy="9.02222222" rx="9.03344262" ry="9.02222222"></ellipse>
                                                    </g>
                                                </g>
                                                <g id="XMLID_2096_" transform="translate(21.508197, 5.370370)" fill="#9EC300">
                                                    <g id="XMLID_2097_">
                                                        <ellipse id="XMLID_2098_" cx="9.03344262" cy="9.02222222" rx="9.03344262" ry="9.02222222"></ellipse>
                                                    </g>
                                                </g>
                                                <g id="XMLID_2093_" transform="translate(25.809836, 17.185185)" fill="#9EC300">
                                                    <g id="XMLID_2094_">
                                                        <ellipse id="XMLID_2095_" cx="9.03344262" cy="9.02222222" rx="9.03344262" ry="9.02222222"></ellipse>
                                                    </g>
                                                </g>
                                                <g id="XMLID_2090_" transform="translate(9.678689, 19.333333)" fill="#E3E98F">
                                                    <g id="XMLID_2091_">
                                                        <ellipse id="XMLID_2092_" cx="9.03344262" cy="9.02222222" rx="9.03344262" ry="9.02222222"></ellipse>
                                                    </g>
                                                </g>
                                                <g id="XMLID_2087_" transform="translate(16.131148, 25.777778)" fill="#E3E98F">
                                                    <g id="XMLID_2088_">
                                                        <ellipse id="XMLID_2089_" cx="9.03344262" cy="9.02222222" rx="9.03344262" ry="9.02222222"></ellipse>
                                                    </g>
                                                </g>
                                                <g id="XMLID_2084_" transform="translate(13.980328, 11.814815)" fill="#E3E98F">
                                                    <g id="XMLID_2085_">
                                                        <ellipse id="XMLID_2086_" cx="9.03344262" cy="9.02222222" rx="9.03344262" ry="9.02222222"></ellipse>
                                                    </g>
                                                </g>
                                            </g>
                                        </g>
                                    </g>
                                </g>
                            </g>
                            <g id="XMLID_2023_" transform="translate(132.275410, 164.333333)">
                                <g id="XMLID_2025_">
                                    <path d="M14.4253796,41.8888889 L12.059478,52.9518519 C11.7368551,54.562963 11.7368551,56.1740741 12.167019,57.8925926 L15.2857075,69.7074074 L20.9853796,69.7074074 L18.2968551,67.6666667 C17.4365272,66.5925926 17.7591501,65.4111111 17.5440682,64.1222222 C17.3289862,62.5111111 17.1139042,60.362963 16.8988223,58.537037 C16.6837403,56.4962963 17.0063633,54.4555556 17.8666911,52.737037 L27.1152157,35.4444444" id="XMLID_2039_" fill="#FFFFFF"></path>
                                    <g id="XMLID_2034_" transform="translate(65.600000, 0.000000)">
                                        <path d="M6.45245902,8.16296296 C6.45245902,8.16296296 6.56,1.82592593 9.24852459,0 L10.8616393,6.98148148 L6.45245902,8.16296296 L6.45245902,8.16296296 Z" id="XMLID_2038_" fill="#FFFFFF"></path>
                                        <path d="M6.12983607,4.2962963 C8.4957377,4.2962963 9.89377049,5.04814815 10.7540984,5.90740741 C11.2918033,6.44444444 11.8295082,7.41111111 12.0445902,8.27037037 L13.442623,18.2592593 L13.5501639,18.2592593 C13.6577049,18.4740741 13.6577049,18.6888889 13.7652459,18.7962963 C13.7652459,19.0111111 13.8727869,19.1185185 13.8727869,19.3333333 L13.8727869,19.3333333 L13.8727869,19.3333333 L13.8727869,19.4407407 C13.8727869,19.5481481 13.9803279,19.5481481 13.9803279,19.5481481 L13.9803279,19.6555556 L13.9803279,21.3740741 C13.9803279,21.3740741 13.9803279,21.3740741 13.9803279,21.4814815 C13.8727869,21.4814815 13.8727869,21.5888889 13.7652459,21.6962963 C13.7652459,21.8037037 13.6577049,21.8037037 13.6577049,21.9111111 C13.5501639,21.9111111 13.335082,21.9111111 13.227541,22.0185185 C13.12,22.1259259 13.012459,22.1259259 12.904918,22.2333333 C12.797377,22.3407407 12.797377,22.3407407 12.6898361,22.5555556 L12.6898361,22.5555556 L9.24852459,22.5555556 L0.752786885,14.9296296 C0.215081967,14.5 0,13.8555556 0,13.2111111 L0,7.1962963 C0,6.76666667 0.107540984,6.44444444 0.645245902,6.12222222 C1.18295082,5.8 3.11868852,4.2962963 6.12983607,4.2962963 L6.12983607,4.2962963 Z" id="XMLID_2037_" fill="#FFFFFF"></path>
                                        <path d="M13.8865581,19.3470875 L14.1016401,21.2804208 C14.2091811,21.9248652 13.6714761,22.5693097 13.0262302,22.5693097 L9.04721385,22.8915319 C8.40196795,22.9989393 7.75672205,22.4619023 7.75672205,21.8174578 L7.54164008,19.8841245 C7.4340991,19.23968 7.97180401,18.5952356 8.61704992,18.5952356 L12.5960663,18.2730134 C13.2413122,18.165606 13.7790171,18.702643 13.8865581,19.3470875 L13.8865581,19.3470875 Z" id="XMLID_2036_" fill="#55241A"></path>
                                        <path d="M10.244368,22.9057176 L12.9328926,22.6909028 C13.2555156,22.6909028 13.4705975,22.3686806 13.3630566,22.1538658 L13.3630566,21.939051 C13.3630566,21.6168287 13.0404336,21.4020139 12.8253516,21.5094213 L10.1368271,21.7242361 C9.8142041,21.7242361 9.59912213,22.0464584 9.70666312,22.2612732 L9.70666312,22.476088 C9.70666312,22.7983102 9.92174508,23.013125 10.244368,22.9057176 L10.244368,22.9057176 Z" id="XMLID_2035_" fill="#55241A"></path>
                                    </g>
                                    <path d="M9.14098361,21.4814815 L5.9147541,23.8444444 C3.44131148,25.6703704 1.82819672,28.462963 1.61311475,31.5777778 L0,54.562963 C0,54.562963 0.537704918,57.3555556 5.59213115,57.3555556 L6.77508197,48.8703704 L4.94688525,32.6518519 C4.6242623,29.9666667 5.80721311,27.3888889 7.95803279,25.7777778 L7.95803279,25.7777778 L9.14098361,21.4814815 L9.14098361,21.4814815 Z" id="XMLID_2033_" fill="#55241A"></path>
                                    <path d="M55.9213115,33.2962963 L55.9213115,35.1222222 C55.9213115,36.1962963 55.7062295,37.2703704 55.3836066,38.3444444 L53.6629508,43.7148148 C53.1252459,45.0037037 52.802623,46.4 52.802623,47.7962963 L52.802623,57.2481481 C52.802623,59.2888889 53.2327869,61.3296296 54.0931148,63.1555556 L55.8137705,66.9148148 L50.8668852,66.9148148 L49.5763934,63.0481481 C49.1462295,61.6518519 48.8236066,60.1481481 48.8236066,58.6444444 L48.8236066,48.2259259 C48.8236066,46.6148148 48.6085246,45.1111111 48.0708197,43.6074074 L45.1672131,35.5518519 L55.9213115,33.2962963 L55.9213115,33.2962963 Z" id="XMLID_2032_" fill="#FFFFFF"></path>
                                    <path d="M70.8963934,4.2962963 C65.6268852,4.2962963 58.9593443,7.62592593 53.6898361,12.3518519 C48.0977049,17.4 41,20.1925926 33.4721311,20.0851852 L16.0504918,19.5481481 C11.4262295,19.4407407 7.44721311,22.7703704 6.80196721,27.3888889 L6.80196721,27.3888889 C6.2642623,31.4703704 7.01704918,35.6592593 8.95278689,39.3111111 L8.95278689,39.3111111 C9.38295082,40.062963 9.38295082,40.9222222 9.16786885,41.7814815 L4.97377049,52.8444444 C4.43606557,54.4555556 4.22098361,56.0666667 4.32852459,57.7851852 L5.51147541,69.6 L11.2111475,69.6 L9.70557377,67.5592593 C8.95278689,66.4851852 8.63016393,65.3037037 8.63016393,64.0148148 C8.73770492,62.4037037 8.73770492,60.2555556 8.8452459,58.4296296 C8.95278689,56.3888889 9.59803279,54.3481481 10.7809836,52.6296296 L21.212459,40.3851852 C22.2878689,39.2037037 23.9009836,38.6666667 25.4065574,38.9888889 L37.1285246,41.8888889 C37.9888525,42.1037037 38.8491803,42.2111111 39.7095082,42.2111111 L47.1298361,42.2111111 C50.1409836,42.2111111 53.1521311,40.9222222 55.3029508,38.7740741 L55.3029508,38.7740741 C57.3462295,36.6259259 58.5291803,33.8333333 58.5291803,30.8259259 L58.5291803,30.7185185 C58.5291803,28.0333333 59.2819672,25.3481481 60.572459,22.9851852 L63.2609836,18.1518519 C64.1213115,16.6481481 65.7344262,15.6814815 67.562623,15.6814815 L69.0681967,15.6814815 L70.8963934,4.2962963 L70.8963934,4.2962963 Z" id="XMLID_2031_" fill="#FFFFFF"></path>
                                    <path d="M70.7619672,4.08148148 L65.492459,5.37037037 C63.9868852,5.69259259 62.9114754,7.08888889 62.9114754,8.7 L62.9114754,10.3111111 C62.9114754,11.4925926 62.3737705,12.5666667 61.5134426,13.2111111 L47.8557377,24.7037037 C45.812459,26.4222222 43.2314754,27.2814815 40.6504918,27.2814815 L40.3278689,27.2814815 C39.467541,27.2814815 38.7147541,26.5296296 38.7147541,25.6703704 L38.7147541,20.3 C38.7147541,18.9037037 39.682623,17.7222222 41.0806557,17.4 C43.3390164,16.9703704 47.2104918,15.6814815 51.9422951,12.137037 C59.7927869,6.33703704 66.0301639,-0.107407407 72.16,1.3962963 C78.397377,3.00740741 78.612459,1.07407407 78.612459,1.07407407 C78.612459,1.07407407 77.6445902,3.75925926 75.9239344,3.75925926 L78.612459,4.61851852 L75.4937705,4.94074074 L70.7619672,4.08148148 L70.7619672,4.08148148 Z" id="XMLID_2030_" fill="#55241A"></path>
                                    <path d="M59.5777049,16.1111111 C59.6852459,15.8962963 60.0078689,10.7407407 60.0078689,10.7407407 L58.0721311,17.6148148 L59.5777049,16.1111111 L59.5777049,16.1111111 Z" id="XMLID_2029_" fill="#FFFFFF"></path>
                                    <path d="M52.0498361,23.6296296 C52.157377,23.4148148 52.48,18.2592593 52.48,18.2592593 L50.5442623,25.1333333 L52.0498361,23.6296296 L52.0498361,23.6296296 Z" id="XMLID_2028_" fill="#FFFFFF"></path>
                                    <path d="M68.8262295,4.08148148 C68.8262295,4.08148148 72.375082,9.88148148 78.612459,8.80740741 L76.1390164,7.51851852 C76.1390164,7.51851852 78.72,7.51851852 80.3331148,6.55185185 C80.3331148,6.55185185 77.1068852,6.12222222 75.2786885,4.83333333 L70.4393443,3.22222222 L68.8262295,4.08148148 L68.8262295,4.08148148 Z" id="XMLID_2027_" fill="#55241A"></path>
                                    <path d="M65.6,8.16296296 C65.6,8.16296296 65.707541,1.82592593 68.3960656,0 L70.0091803,6.98148148 L65.6,8.16296296 L65.6,8.16296296 Z" id="XMLID_2026_" fill="#FFFFFF"></path>
                                </g>
                                <path d="M46.9954098,38.237037 L46.9954098,39.5259259 C46.9954098,40.9222222 46.6727869,42.3185185 46.135082,43.6074074 L46.135082,43.6074074 C45.597377,44.8962963 45.2747541,46.2925926 45.2747541,47.6888889 L45.2747541,57.1407407 C45.2747541,59.1814815 45.704918,61.2222222 46.5652459,63.0481481 L48.2859016,66.8074074 L43.3390164,66.8074074 L42.0485246,62.9407407 C41.6183607,61.5444444 41.2957377,60.0407407 41.2957377,58.537037 L41.2957377,48.1185185 C41.2957377,46.5074074 41.0806557,45.0037037 40.5429508,43.5 L37.6393443,35.4444444 L46.9954098,38.237037 L46.9954098,38.237037 Z" id="XMLID_2024_" fill="#FFFFFF"></path>
                            </g>
                            <g id="XMLID_2001_" transform="translate(153.783607, 220.185185)">
                                <g id="XMLID_2011_">
                                    <g id="XMLID_2015_" fill="#85A600">
                                        <g id="XMLID_2016_">
                                            <g id="XMLID_2017_">
                                                <path d="M32.1547541,18.6888889 L32.1547541,16.1111111 L27.6380328,16.1111111 C28.9285246,14.3925926 29.6813115,12.3518519 29.6813115,10.0962963 C29.6813115,4.51111111 25.1645902,0 19.572459,0 C13.9803279,0 9.46360656,4.51111111 9.46360656,10.0962963 C9.46360656,10.7407407 9.57114754,11.3851852 9.67868852,12.0296296 C8.81836066,11.7074074 7.95803279,11.4925926 7.09770492,11.4925926 C3.11868852,11.4925926 -2.84217094e-14,14.7148148 -2.84217094e-14,18.5814815 L-2.84217094e-14,18.5814815 L32.1547541,18.6888889 L32.1547541,18.6888889 Z" id="XMLID_2018_"></path>
                                            </g>
                                        </g>
                                    </g>
                                    <g id="XMLID_2012_" transform="translate(16.131148, 2.148148)" fill="#9EC300">
                                        <g id="XMLID_2013_">
                                            <path d="M37.8544262,16.5407407 C37.9619672,16.2185185 37.9619672,15.7888889 37.9619672,15.3592593 C37.9619672,12.137037 35.3809836,9.45185185 32.0472131,9.45185185 C30.6491803,9.45185185 29.4662295,9.98888889 28.3908197,10.7407407 C28.3908197,10.5259259 28.4983607,10.3111111 28.4983607,10.2037037 C28.4983607,6.98148148 25.917377,4.2962963 22.5836066,4.2962963 C21.5081967,4.2962963 20.5403279,4.61851852 19.787541,5.04814815 C19.357377,2.14814815 16.9914754,0 13.9803279,0 C10.7540984,0 8.06557377,2.57777778 8.06557377,5.90740741 C8.06557377,6.33703704 8.17311475,6.87407407 8.28065574,7.3037037 C7.95803279,7.3037037 7.63540984,7.1962963 7.31278689,7.1962963 C3.22622951,7.1962963 0,10.4185185 0,14.5 C0,15.2518519 0.107540984,15.8962963 0.322622951,16.5407407 L37.8544262,16.5407407 L37.8544262,16.5407407 L37.8544262,16.5407407 Z" id="XMLID_2014_"></path>
                                        </g>
                                    </g>
                                </g>
                                <g id="XMLID_2008_" transform="translate(55.921311, 15.037037)" fill="#85A600">
                                    <g id="XMLID_2009_">
                                        <path d="M11.1842623,3.86666667 C10.3239344,1.61111111 8.17311475,0 5.59213115,0 C3.01114754,0 0.860327869,1.61111111 0,3.86666667 L11.1842623,3.86666667 L11.1842623,3.86666667 Z" id="XMLID_2010_"></path>
                                    </g>
                                </g>
                                <g id="XMLID_2005_" transform="translate(61.298361, 4.296296)" fill="#9EC300">
                                    <g id="XMLID_2006_">
                                        <path d="M3.76393443,14.3925926 L11.8295082,14.3925926 C13.335082,10.9555556 14.0878689,6.98148148 14.0878689,6.98148148 C14.0878689,6.98148148 13.227541,7.73333333 12.0445902,8.80740741 C12.2596721,6.12222222 12.1521311,3.86666667 12.1521311,3.86666667 C12.1521311,3.86666667 10.7540984,5.8 9.35606557,8.27037037 C9.03344262,4.2962963 7.63540984,-2.93098879e-14 7.63540984,-2.93098879e-14 C7.63540984,-2.93098879e-14 5.59213115,5.47777778 5.59213115,9.77407407 L5.59213115,10.3111111 C3.22622951,7.3037037 0,4.72592593 0,4.72592593 C0,4.72592593 1.18295082,10.4185185 3.44131148,14.0703704 C3.65639344,14.1777778 3.65639344,14.2851852 3.76393443,14.3925926 L3.76393443,14.3925926 Z" id="XMLID_2007_"></path>
                                    </g>
                                </g>
                                <g id="XMLID_2002_" transform="translate(70.977049, 16.111111)" fill="#85A600">
                                    <g id="XMLID_2003_">
                                        <path d="M9.24852459,3.22222222 C8.4957377,1.3962963 6.66754098,0 4.6242623,0 C2.47344262,0 0.645245902,1.28888889 0,3.22222222 L9.24852459,3.22222222 L9.24852459,3.22222222 Z" id="XMLID_2004_"></path>
                                    </g>
                                </g>
                            </g>
                        </g>
                        <g id="XMLID_1_" transform="translate(61.298361, 61.222222)">
                            <g id="XMLID_2040_" transform="translate(13.980328, 59.074074)" fill="#55241A">
                                <g id="XMLID_2041_">
                                    <g id="XMLID_2042_">
                                        <rect id="XMLID_2043_" x="-1.44328993e-14" y="1.42108547e-14" width="2.36590164" height="14.5"></rect>
                                    </g>
                                </g>
                            </g>
                            <g id="XMLID_2021_" fill="#9EC300">
                                <path d="M13.9803279,60.6851852 L15.7009836,60.6851852 C23.4439344,60.6851852 29.6813115,54.4555556 29.6813115,46.7222222 L29.6813115,13.962963 C29.6813115,6.22962963 23.4439344,0 15.7009836,0 L13.9803279,0 C6.23737705,0 0,6.22962963 0,13.962963 L0,46.7222222 C0,54.4555556 6.23737705,60.6851852 13.9803279,60.6851852 L13.9803279,60.6851852 Z" id="XMLID_2022_"></path>
                            </g>
                            <g id="XMLID_2019_" fill="#C0CE06">
                                <path d="M14.9481967,0 L14.9481967,0 C21.8308197,0 27.6380328,4.72592593 29.2511475,11.062963 C27.9606557,7.62592593 24.6268852,5.15555556 20.7554098,5.15555556 C15.8085246,5.15555556 11.7219672,9.12962963 11.7219672,14.0703704 L11.7219672,39.8481481 C11.7219672,44.7888889 7.63540984,48.8703704 2.68852459,48.8703704 L2.68852459,48.8703704 C1.82819672,48.8703704 0.967868852,48.762963 0.215081967,48.5481481 C0,47.6888889 0,46.7222222 0,45.862963 L0,14.8222222 C0.107540984,6.65925926 6.66754098,0 14.9481967,0 L14.9481967,0 Z" id="XMLID_2020_"></path>
                            </g>
                        </g>
                        <g id="XMLID_2045_" transform="translate(0.000000, 103.111111)">
                            <g id="XMLID_2050_" transform="translate(13.980328, 60.148148)" fill="#55241A">
                                <g id="XMLID_2051_">
                                    <g id="XMLID_2052_">
                                        <rect id="XMLID_2053_" x="3.55271368e-15" y="0" width="2.36590164" height="14.5"></rect>
                                    </g>
                                </g>
                            </g>
                            <g id="XMLID_2048_" fill="#9EC300">
                                <path d="M13.9803279,60.6851852 L15.7009836,60.6851852 C23.4439344,60.6851852 29.6813115,54.4555556 29.6813115,46.7222222 L29.6813115,13.962963 C29.6813115,6.22962963 23.4439344,0 15.7009836,0 L13.9803279,0 C6.23737705,0 0,6.22962963 0,13.962963 L0,46.7222222 C0,54.4555556 6.23737705,60.6851852 13.9803279,60.6851852 L13.9803279,60.6851852 Z" id="XMLID_2049_"></path>
                            </g>
                            <g id="XMLID_2046_" fill="#C0CE06">
                                <path d="M14.9481967,0 L14.9481967,0 C21.8308197,0 27.6380328,4.72592593 29.2511475,11.062963 C27.9606557,7.62592593 24.6268852,5.15555556 20.7554098,5.15555556 C15.8085246,5.15555556 11.7219672,9.12962963 11.7219672,14.0703704 L11.7219672,39.8481481 C11.7219672,44.7888889 7.63540984,48.8703704 2.68852459,48.8703704 L2.68852459,48.8703704 C1.82819672,48.8703704 0.967868852,48.762963 0.215081967,48.5481481 C-1.77635684e-15,47.6888889 -1.77635684e-15,46.7222222 -1.77635684e-15,45.862963 L-1.77635684e-15,14.8222222 C0.107540984,6.65925926 6.66754098,0 14.9481967,0 L14.9481967,0 Z" id="XMLID_2047_"></path>
                            </g>
                        </g>
                    </g>
                </g>
            </g>
        </g>
    </g>
</svg>