<?xml version="1.0" encoding="UTF-8" standalone="no"?>
<svg width="492px" height="300px" viewBox="0 0 492 300" version="1.1" xmlns="http://www.w3.org/2000/svg" xmlns:xlink="http://www.w3.org/1999/xlink">
    <!-- Generator: Sketch 3.7.1 (28215) - http://www.bohemiancoding.com/sketch -->
    <title>Stap 8</title>
    <desc>Created with Sketch.</desc>
    <defs></defs>
    <g id="Page-1" stroke="none" stroke-width="1" fill="none" fill-rule="evenodd">
        <g id="Stap-8">
            <g id="Group" transform="translate(36.000000, 35.000000)">
                <path d="M87.4248927,28.2884766 L99.2317597,28.2884766 C106.081545,28.2884766 111.669528,33.7927734 111.759657,40.6505859 C111.849785,47.5986328 110.858369,61.0435547 124.287554,61.0435547 L291.476395,61.0435547 C298.416309,61.0435547 304.004292,66.6380859 304.004292,73.5861328 L304.004292,76.6541016 C304.004292,83.6021484 309.592275,89.1966797 316.532189,89.1966797 L406.841202,89.1966797 C413.781116,89.1966797 419.369099,94.7912109 419.369099,101.739258 L419.369099,138.91582 C419.369099,145.863867 413.781116,151.458398 406.841202,151.458398 L331.403433,151.458398 C324.463519,151.458398 318.875536,157.05293 318.875536,164.000977 L318.875536,167.700586 C318.875536,174.648633 313.287554,180.243164 306.347639,180.243164 L272.909871,180.243164 C264.257511,180.243164 257.317597,187.281445 257.317597,195.853711 L257.317597,196.756055 L257.317597,209.930273 C257.317597,221.480273 247.944206,230.774414 236.497854,230.774414 L178.725322,230.774414 C167.188841,230.774414 157.905579,221.390039 157.905579,209.930273 L157.905579,200.726367 C157.905579,189.537305 148.802575,180.423633 137.626609,180.423633 L129.244635,180.423633 L129.244635,180.243164 L15.4120172,180.243164 C6.84978541,180.243164 0,173.295117 0,164.813086 L0,145.593164 C0,135.667383 8.02145923,127.546289 18.0257511,127.546289 L26.9484979,127.546289 C35.6008584,127.546289 42.5407725,120.508008 42.5407725,111.935742 L42.5407725,41.7333984 C42.5407725,34.3341797 48.4892704,28.3787109 55.8798283,28.3787109 L87.4248927,28.2884766 L87.4248927,28.2884766 L87.4248927,28.2884766 Z" id="XMLID_2054_" fill="#DEE57B"></path>
                <path d="M277.416309,117.891211 L277.416309,89.1966797 C277.416309,82.6095703 272.098712,77.2857422 265.519313,77.2857422 L151.055794,77.2857422 C144.476395,77.2857422 139.158798,82.6095703 139.158798,89.1966797 L139.158798,115.093945" id="XMLID_1999_" stroke="#C0CE06" stroke-width="13"></path>
                <path d="M294.360515,171.400195 L122.755365,171.400195 C120.592275,171.400195 118.879828,169.685742 118.879828,167.520117 L118.879828,140.810742 C118.879828,138.645117 117.167382,136.930664 115.004292,136.930664 L53.6266094,136.930664 C51.4635193,136.930664 49.751073,135.216211 49.751073,133.050586 L49.751073,46.1548828 C49.751073,43.9892578 51.4635193,42.2748047 53.6266094,42.2748047 L86.7038627,42.2748047 C88.8669528,42.2748047 90.5793991,43.9892578 90.5793991,46.1548828 L90.5793991,92.1744141 C90.5793991,94.3400391 92.2918455,96.0544922 94.4549356,96.0544922 L155.832618,96.0544922 C157.995708,96.0544922 159.708155,97.7689453 159.708155,99.9345703 L159.708155,126.643945 C159.708155,128.80957 161.420601,130.524023 163.583691,130.524023 L253.622318,130.524023 C255.785408,130.524023 257.497854,128.80957 257.497854,126.643945 L257.497854,100.205273 C257.497854,98.0396484 259.2103,96.3251953 261.373391,96.3251953 L294.450644,96.3251953 C296.613734,96.3251953 298.32618,98.0396484 298.32618,100.205273 L298.32618,167.520117 C298.236052,169.685742 296.523605,171.400195 294.360515,171.400195 L294.360515,171.400195 Z" id="XMLID_1998_" fill="#FFFFFF"></path>
                <path d="M90.3991416,105.890039 L90.3991416,126.73418 C90.3991416,128.899805 92.111588,130.614258 94.2746781,130.614258 L115.094421,130.614258 C117.257511,130.614258 118.969957,128.899805 118.969957,126.73418 L118.969957,105.890039 C118.969957,103.724414 117.257511,102.009961 115.094421,102.009961 L94.2746781,102.009961 C92.2017167,102.009961 90.3991416,103.814648 90.3991416,105.890039 L90.3991416,105.890039 Z" id="XMLID_1996_" fill="#00AAE6"></path>
                <path d="M261.283262,137.201367 L329.51073,137.201367 C331.313305,137.201367 333.11588,136.479492 334.377682,135.125977 L346.725322,122.312695 C349.158798,119.786133 349.248927,115.906055 346.995708,113.289258 L334.467811,98.7615234 C333.206009,97.3177734 331.313305,96.4154297 329.420601,96.4154297 L302.201717,96.4154297 L269.665236,96.4154297 L261.283262,137.201367 L261.283262,137.201367 Z" id="XMLID_1994_" fill="#FFFFFF"></path>
                <path d="M80.5751073,130.614258 L59.7553648,130.614258 C57.5922747,130.614258 55.8798283,128.899805 55.8798283,126.73418 L55.8798283,105.890039 C55.8798283,103.724414 57.5922747,102.009961 59.7553648,102.009961 L80.5751073,102.009961 C82.7381974,102.009961 84.4506438,103.724414 84.4506438,105.890039 L84.4506438,126.73418 C84.4506438,128.899805 82.6480687,130.614258 80.5751073,130.614258 L80.5751073,130.614258 Z" id="XMLID_1993_" fill="#85A600"></path>
                <path d="M67.416309,117.710742 C67.416309,115.545117 68.9484979,114.462305 70.2103004,113.559961 C71.2017167,112.838086 72.0128755,112.29668 72.0128755,111.304102 C72.0128755,110.311523 71.2918455,109.499414 69.4892704,109.499414 C67.8669528,109.499414 66.6051502,110.311523 65.6137339,111.48457 L63,108.59707 C64.7124464,106.611914 67.2360515,105.529102 69.9399142,105.529102 C74.0858369,105.529102 76.5193133,107.604492 76.5193133,110.582227 C76.5193133,113.199023 74.806867,114.462305 73.2746781,115.545117 C72.193133,116.357227 71.2017167,117.079102 71.2017167,118.252148 C71.2017167,118.793555 71.472103,119.334961 71.7424893,119.605664 L68.3175966,120.598242 C67.776824,119.786133 67.416309,118.883789 67.416309,117.710742 L67.416309,117.710742 Z M67.416309,124.839258 C67.416309,123.395508 68.5879828,122.222461 70.0300429,122.222461 C71.472103,122.222461 72.6437768,123.395508 72.6437768,124.839258 C72.6437768,126.283008 71.472103,127.456055 70.0300429,127.456055 C68.5879828,127.36582 67.416309,126.192773 67.416309,124.839258 L67.416309,124.839258 Z" id="XMLID_1989_" fill="#FFFFFF"></path>
                <path d="M80.5751073,96.3251953 L59.7553648,96.3251953 C57.5922747,96.3251953 55.8798283,94.6107422 55.8798283,92.4451172 L55.8798283,71.6009766 C55.8798283,69.4353516 57.5922747,67.7208984 59.7553648,67.7208984 L80.5751073,67.7208984 C82.7381974,67.7208984 84.4506438,69.4353516 84.4506438,71.6009766 L84.4506438,92.4451172 C84.4506438,94.6107422 82.6480687,96.3251953 80.5751073,96.3251953 L80.5751073,96.3251953 Z" id="XMLID_1987_" fill="#F6861E"></path>
                <path d="M125.008584,105.890039 L125.008584,126.73418 C125.008584,128.899805 126.72103,130.614258 128.88412,130.614258 L149.703863,130.614258 C151.866953,130.614258 153.579399,128.899805 153.579399,126.73418 L153.579399,105.890039 C153.579399,103.724414 151.866953,102.009961 149.703863,102.009961 L128.88412,102.009961 C126.72103,102.009961 125.008584,103.814648 125.008584,105.890039 L125.008584,105.890039 Z" id="XMLID_1985_" fill="#F6861E"></path>
                <path d="M125.008584,140.630273 L125.008584,161.474414 C125.008584,163.640039 126.72103,165.354492 128.88412,165.354492 L149.703863,165.354492 C151.866953,165.354492 153.579399,163.640039 153.579399,161.474414 L153.579399,140.630273 C153.579399,138.464648 151.866953,136.750195 149.703863,136.750195 L128.88412,136.750195 C126.72103,136.750195 125.008584,138.464648 125.008584,140.630273 L125.008584,140.630273 Z" id="XMLID_1983_" fill="#F8B000"></path>
                <path d="M159.798283,140.630273 L159.798283,161.474414 C159.798283,163.640039 161.51073,165.354492 163.67382,165.354492 L184.493562,165.354492 C186.656652,165.354492 188.369099,163.640039 188.369099,161.474414 L188.369099,140.630273 C188.369099,138.464648 186.656652,136.750195 184.493562,136.750195 L163.67382,136.750195 C161.51073,136.750195 159.798283,138.464648 159.798283,140.630273 L159.798283,140.630273 Z" id="XMLID_1981_" fill="#00AAE6"></path>
                <path d="M194.587983,140.630273 L194.587983,161.474414 C194.587983,163.640039 196.300429,165.354492 198.463519,165.354492 L219.283262,165.354492 C221.446352,165.354492 223.158798,163.640039 223.158798,161.474414 L223.158798,140.630273 C223.158798,138.464648 221.446352,136.750195 219.283262,136.750195 L198.463519,136.750195 C196.300429,136.750195 194.587983,138.464648 194.587983,140.630273 L194.587983,140.630273 Z" id="XMLID_1979_" fill="#85A600"></path>
                <path d="M263.626609,140.630273 L263.626609,161.474414 C263.626609,163.640039 265.339056,165.354492 267.502146,165.354492 L288.321888,165.354492 C290.484979,165.354492 292.197425,163.640039 292.197425,161.474414 L292.197425,140.630273 C292.197425,138.464648 290.484979,136.750195 288.321888,136.750195 L267.502146,136.750195 C265.339056,136.750195 263.626609,138.464648 263.626609,140.630273 L263.626609,140.630273 Z" id="XMLID_1977_" fill="#F6861E"></path>
                <path d="M263.626609,106.431445 L263.626609,127.275586 C263.626609,129.441211 265.339056,131.155664 267.502146,131.155664 L288.321888,131.155664 C290.484979,131.155664 292.197425,129.441211 292.197425,127.275586 L292.197425,106.431445 C292.197425,104.26582 290.484979,102.551367 288.321888,102.551367 L267.502146,102.551367 C265.339056,102.641602 263.626609,104.356055 263.626609,106.431445 L263.626609,106.431445 Z" id="XMLID_1975_" fill="#F8B000"></path>
                <path d="M275.88412,127.546289 C275.343348,127.004883 275.343348,126.192773 275.88412,125.741602 L277.776824,123.84668 L276.965665,123.03457 L275.072961,124.929492 C274.532189,125.470898 273.72103,125.470898 273.270386,124.929492 L273.270386,124.929492 C272.729614,124.388086 272.729614,123.575977 273.270386,123.124805 L275.16309,121.229883 L274.351931,120.417773 L272.459227,122.312695 C271.918455,122.854102 271.107296,122.854102 270.656652,122.312695 L270.656652,122.312695 C270.11588,121.771289 270.11588,120.95918 270.656652,120.508008 L275.072961,116.086523 L277.236052,113.920898 L277.686695,113.469727 L277.055794,112.838086 L275.16309,114.733008 C274.712446,115.18418 274.532189,115.81582 274.081545,115.364648 L273.450644,114.733008 C273,114.281836 273.630901,114.101367 274.081545,113.650195 L275.974249,111.755273 L277.236052,110.491992 L277.236052,110.491992 C278.04721,109.679883 279.309013,109.679883 280.030043,110.491992 L280.030043,110.491992 C280.480687,110.943164 281.291845,110.943164 281.832618,110.491992 L284.806867,107.514258 L291.206009,113.920898 L284.896996,120.237305 L282.103004,123.03457 L277.686695,127.456055 C277.236052,128.087695 276.424893,128.087695 275.88412,127.546289 L275.88412,127.546289 L275.88412,127.546289 Z" id="XMLID_1973_" fill="#FFC92F"></path>
                <path d="M276.965665,110.85293 L276.334764,111.48457 L276.785408,111.935742 L278.948498,114.101367 L285.077253,120.237305 C285.618026,120.778711 285.618026,121.59082 285.077253,122.041992 L285.077253,122.041992 C284.536481,122.583398 283.725322,122.583398 283.274678,122.041992 L278.76824,117.530273 L277.957082,118.342383 L282.463519,122.854102 C283.004292,123.395508 283.004292,124.207617 282.463519,124.658789 L282.463519,124.658789 C281.922747,125.200195 281.111588,125.200195 280.660944,124.658789 L276.154506,120.14707 L275.343348,120.95918 L279.849785,125.470898 C280.390558,126.012305 280.390558,126.824414 279.849785,127.275586 L279.849785,127.275586 C279.309013,127.816992 278.497854,127.816992 278.04721,127.275586 L271.918455,121.139648 L269.124464,118.342383 L264.527897,113.74043 L271.55794,106.702148 L272.819742,107.96543 C273.270386,108.416602 273.991416,108.055664 274.622318,107.96543 C274.622318,107.96543 275.974249,107.875195 276.785408,108.59707 L276.785408,108.59707 L278.317597,110.131055 C278.227468,110.04082 277.686695,110.04082 276.965665,110.85293 L276.965665,110.85293 Z" id="XMLID_1972_" fill="#FFFFFF"></path>
                <path d="M278.137339,113.108789 L276.244635,115.003711 C275.793991,115.454883 274.982833,115.454883 274.532189,115.003711 L274.532189,115.003711 C274.081545,114.552539 274.081545,113.74043 274.532189,113.289258 L276.424893,111.394336" id="XMLID_1971_" fill="#FFC92F"></path>
                <path d="M298.236052,106.431445 L298.236052,127.275586 C298.236052,129.441211 299.948498,131.155664 302.111588,131.155664 L322.93133,131.155664 C325.094421,131.155664 326.806867,129.441211 326.806867,127.275586 L326.806867,106.431445 C326.806867,104.26582 325.094421,102.551367 322.93133,102.551367 L302.111588,102.551367 C300.038627,102.641602 298.236052,104.356055 298.236052,106.431445 L298.236052,106.431445 Z" id="XMLID_1969_" fill="#00AAE6"></path>
                <path d="M180.347639,153.624023 L180.347639,152.270508 C180.347639,146.856445 178.454936,142.074023 175.570815,138.91582 C177.463519,138.193945 178.905579,136.389258 178.905579,134.223633 C178.905579,131.426367 176.652361,129.260742 173.948498,129.260742 C171.154506,129.260742 168.991416,131.516602 168.991416,134.223633 C168.991416,136.389258 170.343348,138.193945 172.32618,138.91582 C169.44206,142.074023 167.549356,146.856445 167.549356,152.270508 L167.549356,153.804492 C165.83691,154.345898 164.575107,155.879883 164.575107,157.774805 L164.575107,160.57207 L183.682403,160.57207 L183.682403,157.774805 C183.592275,155.699414 182.240343,153.984961 180.347639,153.624023 L180.347639,153.624023 Z" id="XMLID_1966_" fill="#55241A"></path>
                <ellipse id="XMLID_1965_" fill="#FFFFFF" cx="172.145923" cy="132.870117" rx="1.71244635" ry="1.71445312"></ellipse>
                <path d="M173.858369,129.170508 C171.064378,129.170508 168.901288,131.426367 168.901288,134.133398 C168.901288,136.299023 170.253219,138.103711 172.236052,138.825586 C169.351931,141.983789 167.459227,146.766211 167.459227,152.180273 L167.459227,153.714258 C165.746781,154.255664 164.484979,155.789648 164.484979,157.68457 L164.484979,160.481836 L173.858369,160.481836 L173.858369,129.170508 L173.858369,129.170508 L173.858369,129.170508 Z" id="XMLID_1963_" fill="#FFFFFF" opacity="0.3"></path>
                <rect id="XMLID_1961_" fill="#FFC92F" x="207.386266" y="77.4662109" width="14.8712446" height="27.6117187"></rect>
                <path d="M212.613734,105.07793 L195.939914,105.07793 C194.407725,105.07793 193.145923,103.814648 193.145923,102.280664 L193.145923,80.1732422 C193.145923,78.6392578 194.407725,77.3759766 195.939914,77.3759766 L212.613734,77.3759766 C214.145923,77.3759766 215.407725,78.6392578 215.407725,80.1732422 L215.407725,102.280664 C215.317597,103.814648 214.145923,105.07793 212.613734,105.07793 L212.613734,105.07793 Z" id="XMLID_1960_" fill="#F6861E"></path>
                <path d="M218.111588,105.07793 L227.845494,105.07793 C229.377682,105.07793 230.639485,103.814648 230.639485,102.280664 L230.639485,80.1732422 C230.639485,78.6392578 229.377682,77.3759766 227.845494,77.3759766 L218.111588,77.3759766 C216.579399,77.3759766 215.317597,78.6392578 215.317597,80.1732422 L215.317597,102.280664 C215.317597,103.814648 216.579399,105.07793 218.111588,105.07793 L218.111588,105.07793 Z" id="XMLID_1959_" fill="#F8B000"></path>
                <ellipse id="XMLID_1958_" fill="#FFFFFF" cx="209.008584" cy="84.2337891" rx="1.98283262" ry="1.98515625"></ellipse>
                <ellipse id="XMLID_1957_" fill="#FFFFFF" cx="198.914163" cy="84.2337891" rx="1.98283262" ry="1.98515625"></ellipse>
                <ellipse id="XMLID_1956_" fill="#FFFFFF" cx="209.008584" cy="91.2720703" rx="1.98283262" ry="1.98515625"></ellipse>
                <ellipse id="XMLID_1955_" fill="#FFFFFF" cx="198.914163" cy="91.2720703" rx="1.98283262" ry="1.98515625"></ellipse>
                <ellipse id="XMLID_1954_" fill="#FFFFFF" cx="209.008584" cy="98.3103516" rx="1.98283262" ry="1.98515625"></ellipse>
                <ellipse id="XMLID_1953_" fill="#FFFFFF" cx="198.914163" cy="98.3103516" rx="1.98283262" ry="1.98515625"></ellipse>
                <ellipse id="XMLID_1951_" fill="#FFFFFF" cx="225.321888" cy="84.2337891" rx="1.98283262" ry="1.98515625"></ellipse>
                <ellipse id="XMLID_1950_" fill="#FFFFFF" cx="220.635193" cy="98.3103516" rx="1.98283262" ry="1.98515625"></ellipse>
                <rect id="XMLID_1948_" fill="#00AAE6" x="202.879828" y="105.07793" width="44.7038627" height="12.8132812"></rect>
                <rect id="XMLID_1947_" fill="#FFFFFF" x="172.236052" y="105.07793" width="30.6437768" height="12.8132812"></rect>
                <rect id="XMLID_1946_" fill="#0091E6" x="202.879828" y="109.318945" width="10.2746781" height="1.17304687"></rect>
                <rect id="XMLID_1945_" fill="#00AAE6" x="187.828326" y="109.318945" width="14.9613734" height="1.17304687"></rect>
                <rect id="XMLID_1944_" fill="#00AAE6" x="172.236052" y="114.462305" width="5.67811159" height="1.17304687"></rect>
                <rect id="XMLID_1943_" fill="#0091E6" x="240.193133" y="111.665039" width="7.39055794" height="1.17304687"></rect>
                <path d="M60.5665236,123.84668 L55.0686695,123.84668 L55.0686695,124.47832 C44.0729614,127.004883 35.8712446,136.84043 35.8712446,148.570898 C35.8712446,160.301367 44.0729614,170.136914 55.0686695,172.663477 L55.0686695,173.295117 L60.5665236,173.295117 C74.1759657,173.295117 85.2618026,162.196289 85.2618026,148.570898 C85.1716738,134.855273 74.1759657,123.84668 60.5665236,123.84668 L60.5665236,123.84668 Z" id="XMLID_1941_" fill="#F6861E"></path>
                <path d="M63.0901288,164.90332 L78.9527897,164.90332 C79.7639485,164.000977 80.4849785,163.008398 81.2060086,161.925586 L63.0901288,161.925586 L63.0901288,164.90332 L63.0901288,164.90332 Z M85.1716738,146.766211 L63.0901288,146.766211 L63.0901288,149.743945 L85.1716738,149.743945 L85.1716738,148.570898 L85.1716738,146.766211 L85.1716738,146.766211 Z M78.4120172,131.516602 L63.0901288,131.516602 L63.0901288,134.494336 L80.8454936,134.494336 C80.0343348,133.411523 79.223176,132.418945 78.4120172,131.516602 L78.4120172,131.516602 Z" id="XMLID_1937_" fill="#E86E02"></path>
                <ellipse id="XMLID_1936_" fill="#FFC92F" cx="54.167382" cy="148.570898" rx="24.695279" ry="24.7242188"></ellipse>
                <ellipse id="XMLID_1935_" stroke="#F8B000" stroke-width="1.8377" cx="54.167382" cy="148.570898" rx="18.6566524" ry="18.6785156"></ellipse>
                <path d="M54.9785408,155.60918 L53.806867,155.60918 C52.5450644,155.60918 51.5536481,154.616602 51.5536481,153.263086 L51.5536481,151.729102 L57.7725322,151.729102 C57.9527897,151.729102 58.1330472,151.548633 58.223176,151.368164 L58.583691,149.383008 C58.6738197,149.112305 58.4034335,148.841602 58.1330472,148.841602 L51.5536481,148.841602 L51.5536481,147.488086 L58.4935622,147.488086 C58.6738197,147.488086 58.8540773,147.307617 58.944206,147.127148 L59.304721,145.141992 C59.3948498,144.871289 59.1244635,144.600586 58.8540773,144.600586 L51.5536481,144.600586 L51.5536481,143.337305 C51.5536481,142.074023 52.5450644,140.991211 53.806867,140.991211 L54.9785408,140.991211 C56.0600858,140.991211 56.9613734,141.713086 57.2317597,142.705664 C57.3218884,142.886133 57.4120172,143.066602 57.6824034,143.066602 L61.4678112,143.066602 C61.7381974,143.066602 61.9184549,142.795898 61.9184549,142.61543 C61.5579399,139.186523 58.6738197,136.389258 54.9785408,136.389258 L53.806867,136.389258 C50.0214592,136.389258 46.9570815,139.457227 46.9570815,143.24707 L46.9570815,144.600586 L45.5150215,144.600586 C45.3347639,144.600586 45.1545064,144.781055 45.0643777,144.961523 L44.7038627,146.94668 C44.6137339,147.217383 44.8841202,147.488086 45.1545064,147.488086 L46.9570815,147.488086 L46.9570815,148.841602 L44.7939914,148.841602 C44.6137339,148.841602 44.4334764,149.02207 44.3433476,149.202539 L43.9828326,151.187695 C43.8927039,151.458398 44.1630901,151.729102 44.4334764,151.729102 L46.9570815,151.729102 L46.9570815,153.263086 C46.9570815,157.143164 50.0214592,160.211133 53.806867,160.211133 L55.3390558,160.211133 C58.4935622,160.211133 61.8283262,157.413867 61.8283262,154.16543 L61.8283262,154.075195 C61.8283262,153.804492 61.6480687,153.624023 61.3776824,153.624023 L57.5922747,153.624023 C57.4120172,153.624023 57.2317597,153.804492 57.1416309,153.984961 C56.9613734,154.977539 56.0600858,155.60918 54.9785408,155.60918 L54.9785408,155.60918 Z" id="XMLID_1934_" fill="#F8B000"></path>
                <path d="M390.708155,127.36582 L390.708155,125.741602 L387.824034,125.741602 C388.635193,124.658789 389.085837,123.305273 389.085837,121.861523 C389.085837,118.252148 386.201717,115.364648 382.596567,115.364648 C378.991416,115.364648 376.107296,118.252148 376.107296,121.861523 C376.107296,122.312695 376.107296,122.673633 376.197425,123.124805 C375.656652,122.944336 375.11588,122.763867 374.484979,122.763867 C371.961373,122.763867 369.888412,124.839258 369.888412,127.36582 L369.888412,127.36582 L390.708155,127.36582 L390.708155,127.36582 Z" id="XMLID_1930_" fill="#85A600"></path>
                <path d="M404.678112,127.36582 C404.76824,127.095117 404.76824,126.914648 404.76824,126.643945 C404.76824,124.568555 403.055794,122.854102 400.982833,122.854102 C400.081545,122.854102 399.270386,123.215039 398.639485,123.666211 L398.639485,123.305273 C398.639485,121.229883 396.927039,119.51543 394.854077,119.51543 C394.223176,119.51543 393.592275,119.695898 393.051502,120.056836 C392.781116,118.161914 391.248927,116.718164 389.266094,116.718164 C387.193133,116.718164 385.480687,118.432617 385.480687,120.508008 C385.480687,120.778711 385.570815,121.139648 385.570815,121.410352 L384.939914,121.410352 C382.32618,121.410352 380.16309,123.575977 380.16309,126.192773 C380.16309,126.643945 380.253219,127.095117 380.343348,127.546289 L404.678112,127.546289 L404.678112,127.36582 L404.678112,127.36582 Z" id="XMLID_1926_" fill="#9EC300"></path>
                <path d="M369.978541,99.3029297 L369.257511,99.3029297 C368.356223,99.3029297 367.635193,100.024805 367.635193,100.927148 C367.635193,101.829492 368.356223,102.551367 369.257511,102.551367 L370.7897,102.551367 L370.7897,133.862695 C370.7897,134.133398 370.879828,134.494336 371.060086,134.674805 L375.83691,140.810742 C376.377682,141.532617 377.459227,141.532617 378,140.810742 L382.32618,135.216211 C382.686695,134.674805 382.686695,133.95293 382.236052,133.501758 L380.523605,131.606836 C380.072961,131.155664 380.072961,130.343555 380.523605,129.892383 L382.32618,127.636523 C382.686695,127.185352 382.686695,126.553711 382.416309,126.012305 L381.875536,125.200195 C381.60515,124.749023 381.515021,124.297852 381.785408,123.84668 L382.686695,122.041992 C382.866953,121.59082 382.866953,121.139648 382.596567,120.688477 L380.343348,117.079102 C380.072961,116.62793 380.072961,116.086523 380.343348,115.635352 L382.596567,112.025977 C382.866953,111.574805 382.866953,110.943164 382.506438,110.491992 L381.424893,109.048242 C381.064378,108.59707 381.064378,107.875195 381.424893,107.333789 L382.866953,105.529102 C383.04721,105.258398 383.137339,104.987695 383.137339,104.716992 L383.137339,102.641602 L385.030043,102.641602 C385.93133,102.641602 386.652361,101.919727 386.652361,101.017383 C386.652361,100.115039 385.93133,99.3931641 385.030043,99.3931641 L383.948498,99.3931641 C390.708155,96.6861328 395.484979,90.0087891 395.484979,82.3388672 C395.484979,72.1423828 387.283262,63.9310547 377.098712,63.9310547 C366.914163,63.9310547 358.712446,72.1423828 358.712446,82.3388672 C358.532189,89.9185547 363.218884,96.5056641 369.978541,99.3029297 L369.978541,99.3029297 Z M376.918455,71.3302734 C379.351931,71.3302734 381.244635,73.3154297 381.244635,75.6615234 C381.244635,78.0978516 379.261803,79.9927734 376.918455,79.9927734 C374.484979,79.9927734 372.592275,78.0076172 372.592275,75.6615234 C372.592275,73.3154297 374.484979,71.3302734 376.918455,71.3302734 L376.918455,71.3302734 Z" id="XMLID_1919_" fill="#55241A"></path>
                <path d="M367.815451,99.3029297 L367.094421,99.3029297 C366.193133,99.3029297 365.472103,100.024805 365.472103,100.927148 C365.472103,101.829492 366.193133,102.551367 367.094421,102.551367 L368.626609,102.551367 L368.626609,133.862695 C368.626609,134.133398 368.716738,134.494336 368.896996,134.674805 L373.67382,140.810742 C374.214592,141.532617 375.296137,141.532617 375.83691,140.810742 L380.16309,135.216211 C380.523605,134.674805 380.523605,133.95293 380.072961,133.501758 L378.360515,131.606836 C377.909871,131.155664 377.909871,130.343555 378.360515,129.892383 L380.16309,127.636523 C380.523605,127.185352 380.523605,126.553711 380.253219,126.012305 L379.712446,125.200195 C379.44206,124.749023 379.351931,124.297852 379.622318,123.84668 L380.523605,122.041992 C380.703863,121.59082 380.703863,121.139648 380.433476,120.688477 L378.180258,117.079102 C377.909871,116.62793 377.909871,116.086523 378.180258,115.635352 L380.433476,112.025977 C380.703863,111.574805 380.703863,110.943164 380.343348,110.491992 L379.261803,109.048242 C378.901288,108.59707 378.901288,107.875195 379.261803,107.333789 L380.703863,105.529102 C380.88412,105.258398 380.974249,104.987695 380.974249,104.716992 L380.974249,102.641602 L382.866953,102.641602 C383.76824,102.641602 384.48927,101.919727 384.48927,101.017383 C384.48927,100.115039 383.76824,99.3931641 382.866953,99.3931641 L381.785408,99.3931641 C388.545064,96.6861328 393.321888,90.0087891 393.321888,82.3388672 C393.321888,72.1423828 385.120172,63.9310547 374.935622,63.9310547 C364.751073,63.9310547 356.549356,72.1423828 356.549356,82.3388672 C356.27897,89.9185547 361.055794,96.5056641 367.815451,99.3029297 L367.815451,99.3029297 Z M374.755365,71.3302734 C377.188841,71.3302734 379.081545,73.3154297 379.081545,75.6615234 C379.081545,78.0978516 377.098712,79.9927734 374.755365,79.9927734 C372.321888,79.9927734 370.429185,78.0076172 370.429185,75.6615234 C370.339056,73.3154297 372.321888,71.3302734 374.755365,71.3302734 L374.755365,71.3302734 Z" id="XMLID_1916_" fill="#00AAE6"></path>
                <path d="M380.072961,133.501758 L378.360515,131.606836 C377.909871,131.155664 377.909871,130.343555 378.360515,129.892383 L380.16309,127.636523 C380.523605,127.185352 380.523605,126.553711 380.253219,126.012305 L379.712446,125.200195 C379.44206,124.749023 379.351931,124.297852 379.622318,123.84668 L380.523605,122.041992 C380.703863,121.59082 380.703863,121.139648 380.433476,120.688477 L378.180258,117.079102 C377.909871,116.62793 377.909871,116.086523 378.180258,115.635352 L380.433476,112.025977 C380.703863,111.574805 380.703863,110.943164 380.343348,110.491992 L379.261803,109.048242 C378.901288,108.59707 378.901288,107.875195 379.261803,107.333789 L380.703863,105.529102 C380.88412,105.258398 380.974249,104.987695 380.974249,104.716992 L380.974249,102.641602 L379.171674,102.641602 C378.360515,102.641602 377.729614,103.273242 377.729614,104.085352 L377.729614,138.554883 L380.343348,135.216211 C380.523605,134.765039 380.523605,134.043164 380.072961,133.501758 L380.072961,133.501758 Z M373.313305,140.540039 L373.313305,104.085352 C373.313305,103.273242 372.682403,102.641602 371.871245,102.641602 C371.060086,102.641602 370.429185,103.273242 370.429185,104.085352 L370.429185,136.659961 L373.313305,140.540039 L373.313305,140.540039 Z" id="XMLID_1913_" fill="#84D0F0"></path>
                <path d="M379.351931,64.3822266 L356.819742,86.5798828 C358.261803,92.3548828 362.407725,97.0470703 367.815451,99.3029297 L367.094421,99.3029297 C366.193133,99.3029297 365.472103,100.024805 365.472103,100.927148 C365.472103,101.739258 366.103004,102.461133 366.914163,102.551367 L392.51073,77.2857422 C390.708155,70.9693359 385.660944,66.0064453 379.351931,64.3822266 L379.351931,64.3822266 Z M374.755365,80.0830078 C372.321888,80.0830078 370.429185,78.0978516 370.429185,75.7517578 C370.429185,73.3154297 372.412017,71.4205078 374.755365,71.4205078 C377.098712,71.4205078 379.081545,73.4056641 379.081545,75.7517578 C379.081545,78.0978516 377.098712,80.0830078 374.755365,80.0830078 L374.755365,80.0830078 Z" id="XMLID_1909_" fill="#FFFFFF" opacity="0.3"></path>
                <path d="M277.866953,141.532617 C272.639485,141.532617 268.403433,145.773633 268.403433,151.007227 C268.403433,156.24082 272.639485,160.481836 277.866953,160.481836 C283.094421,160.481836 287.330472,156.24082 287.330472,151.007227 C287.330472,145.773633 283.094421,141.532617 277.866953,141.532617 L277.866953,141.532617 Z M282.733906,154.345898 C282.733906,156.331055 280.751073,157.955273 278.858369,157.955273 L277.957082,157.955273 C275.703863,157.955273 273.901288,156.150586 273.901288,153.804492 L273.901288,152.902148 L272.369099,152.902148 C272.188841,152.902148 272.098712,152.72168 272.098712,152.631445 L272.27897,151.458398 C272.27897,151.368164 272.369099,151.27793 272.549356,151.27793 L273.811159,151.27793 L273.811159,150.46582 L272.729614,150.46582 C272.549356,150.46582 272.459227,150.285352 272.459227,150.195117 L272.639485,149.02207 C272.639485,148.931836 272.729614,148.841602 272.909871,148.841602 L273.72103,148.841602 L273.72103,148.029492 C273.72103,145.773633 275.523605,143.968945 277.776824,143.968945 L278.497854,143.968945 C280.660944,143.968945 282.373391,145.593164 282.553648,147.668555 C282.553648,147.849023 282.463519,147.939258 282.283262,147.939258 L280.030043,147.939258 C279.939914,147.939258 279.849785,147.849023 279.759657,147.758789 C279.579399,147.217383 279.128755,146.766211 278.407725,146.766211 L277.957082,146.766211 C277.236052,146.766211 276.60515,147.397852 276.60515,148.119727 L276.60515,148.841602 L280.93133,148.841602 C281.111588,148.841602 281.201717,149.02207 281.201717,149.112305 L281.021459,150.285352 C281.021459,150.375586 280.93133,150.46582 280.751073,150.46582 L276.60515,150.46582 L276.60515,151.27793 L280.480687,151.27793 C280.660944,151.27793 280.751073,151.458398 280.751073,151.548633 L280.570815,152.72168 C280.570815,152.811914 280.480687,152.902148 280.300429,152.902148 L276.60515,152.902148 L276.60515,153.804492 C276.60515,154.526367 277.236052,155.158008 277.957082,155.158008 L278.678112,155.158008 C279.309013,155.158008 279.849785,154.706836 280.030043,154.16543 C280.030043,154.075195 280.120172,153.984961 280.300429,153.984961 L282.553648,153.984961 C282.643777,154.075195 282.733906,154.16543 282.733906,154.345898 L282.733906,154.345898 L282.733906,154.345898 Z" id="XMLID_1905_" fill="#FFFFFF"></path>
                <path id="XMLID_1901_" fill="#0072BA"></path>
                <path id="XMLID_1898_" fill="#0072BA"></path>
                <path id="XMLID_1892_" fill="#0072BA"></path>
                <path d="M106.802575,103.724414 L101.845494,104.175586 C101.034335,104.26582 100.313305,103.63418 100.223176,102.82207 L100.042918,100.656445 L107.974249,99.8443359 L108.154506,102.009961 C108.244635,102.912305 107.613734,103.63418 106.802575,103.724414 L106.802575,103.724414 Z" id="XMLID_1885_" fill="#FFC92F"></path>
                <path d="M108.064378,100.024805 L100.223176,100.74668 C99.7725322,100.74668 99.4120172,100.475977 99.3218884,100.024805 L98.4206009,90.4599609 C98.2403433,88.5650391 99.5922747,86.9408203 101.484979,86.7603516 L103.377682,86.5798828 C105.270386,86.3994141 106.892704,87.7529297 107.072961,89.6478516 L108.064378,100.024805 L108.064378,100.024805 Z" id="XMLID_1883_" fill="#55241A"></path>
                <polygon id="XMLID_1881_" fill="#F8B000" points="104.459227 86.6701172 103.828326 88.0236328 100.763948 86.9408203 100.583691 82.8802734 104.369099 82.6998047"></polygon>
                <path d="M96.3476395,74.9396484 C96.4377682,74.9396484 96.6180258,74.8494141 96.7081545,74.7591797 C97.0686695,73.5861328 98.7811159,72.6837891 99.8626609,72.3228516 C101.665236,71.7814453 103.467811,72.5935547 104.639485,73.9470703 C104.729614,74.0373047 104.819742,74.0373047 105,74.0373047 C105.630901,74.8494141 105.991416,75.5712891 105.991416,76.6541016 L105.991416,79.1806641 C105.991416,79.3611328 106.171674,79.4513672 106.351931,79.4513672 L106.44206,80.9853516 C106.622318,83.8728516 104.459227,86.3091797 101.575107,86.4896484 C98.6909871,86.6701172 96.2575107,84.5044922 96.0772532,81.6169922 L95.806867,77.3759766 C95.806867,76.4736328 95.9871245,75.6615234 96.3476395,74.9396484 L96.3476395,74.9396484 Z" id="XMLID_1879_" fill="#F8B000"></path>
                <path d="M99.9527897,80.8048828 C100.042918,81.6169922 100.763948,82.3388672 101.575107,82.2486328 C102.386266,82.1583984 103.107296,81.4365234 103.017167,80.6244141 L99.9527897,80.8048828 L99.9527897,80.8048828 Z" id="XMLID_1875_" fill="#FFFFFF"></path>
                <path d="M95.7167382,74.9396484 C96.4377682,73.1349609 98.6909871,72.0521484 100.763948,71.8716797 C103.648069,71.6912109 106.081545,73.8568359 106.261803,76.7443359 L106.44206,79.5416016 C105.180258,79.0001953 105.270386,76.5638672 105.270386,76.5638672 C105.270386,76.5638672 99.4120172,76.7443359 98.5107296,76.5638672 C96.888412,76.2029297 95.7167382,74.9396484 95.7167382,74.9396484 L95.7167382,74.9396484 Z" id="XMLID_1871_" fill="#55241A"></path>
                <path d="M105.811159,75.3908203 C104.909871,73.6763672 102.83691,71.7814453 100.763948,71.8716797 C97.8798283,72.0521484 95.7167382,74.4884766 95.8969957,77.3759766 L95.9871245,80.1732422 C97.1587983,79.5416016 96.7982833,77.1052734 96.7982833,77.1052734 C96.7982833,77.1052734 102.566524,76.6541016 103.55794,76.2931641 C105.090129,75.7517578 105.811159,75.3908203 105.811159,75.3908203 L105.811159,75.3908203 Z" id="XMLID_1868_" fill="#55241A"></path>
                <polygon id="XMLID_1865_" fill="#FFC92F" points="103.467811 102.009961 107.16309 109.499414 107.253219 109.589648 107.253219 109.770117 109.686695 119.064258 107.433476 119.695898 104.459227 110.582227 104.639485 110.85293 100.493562 103.63418"></polygon>
                <polygon id="XMLID_1863_" fill="#FFC92F" points="108.154506 102.370898 106.081545 111.394336 98.7811159 115.996289 97.4291845 114.191602 103.197425 109.499414 104.909871 101.649023"></polygon>
                <path d="M112.120172,118.252148 L107.433476,119.695898 L107.793991,120.778711 L112.480687,119.334961 C112.751073,119.244727 112.93133,118.883789 112.841202,118.613086 C112.660944,118.252148 112.390558,118.07168 112.120172,118.252148 L112.120172,118.252148 Z" id="XMLID_1861_" fill="#55241A"></path>
                <path d="M100.133047,118.161914 L97.4291845,114.101367 L96.527897,114.733008 L99.2317597,118.793555 C99.4120172,119.064258 99.7725322,119.154492 100.042918,118.974023 C100.313305,118.793555 100.313305,118.432617 100.133047,118.161914 L100.133047,118.161914 Z" id="XMLID_1859_" fill="#55241A"></path>
                <path d="M116.175966,87.1212891 L115.995708,85.9482422 C115.184549,81.2560547 112.751073,77.3759766 109.776824,75.0298828 C111.309013,74.1275391 112.300429,72.3228516 111.939914,70.4279297 C111.48927,67.9916016 109.236052,66.4576172 106.802575,66.8185547 C104.369099,67.2697266 102.83691,69.5255859 103.197425,71.9619141 C103.55794,73.8568359 105,75.2103516 106.802575,75.5712891 C104.729614,78.8197266 103.918455,83.2412109 104.729614,87.9333984 L105,89.1966797 C103.55794,89.9185547 102.746781,91.4525391 103.017167,93.1669922 L103.467811,95.6033203 L120.141631,92.6255859 L119.690987,90.1892578 C119.330472,88.3845703 117.888412,87.2115234 116.175966,87.1212891 L116.175966,87.1212891 Z" id="XMLID_1855_" fill="#00AAE6"></path>
                <path d="M106.712446,66.8185547 C104.27897,67.2697266 102.746781,69.5255859 103.107296,71.9619141 C103.467811,73.8568359 104.909871,75.2103516 106.712446,75.5712891 C104.639485,78.8197266 103.828326,83.2412109 104.639485,87.9333984 L104.909871,89.1966797 C103.467811,89.9185547 102.656652,91.4525391 102.927039,93.1669922 L103.377682,95.6033203 L111.579399,94.1595703 L106.712446,66.8185547 L106.712446,66.8185547 Z" id="XMLID_1854_" fill="#FFFFFF" opacity="0.3"></path>
                <ellipse id="XMLID_1853_" fill="#FFFFFF" cx="105.811159" cy="70.3376953" rx="1.53218884" ry="1.53398437"></ellipse>
                <ellipse id="XMLID_1850_" fill="#F8B000" cx="109.686695" cy="88.6552734" rx="1.80257511" ry="1.8046875"></ellipse>
                <path d="M103.738197,95.1521484 C103.287554,95.1521484 102.746781,95.0619141 102.296137,94.8814453 L98.9613734,93.7986328 L99.8626609,91.1818359 L103.197425,92.2646484 C103.918455,92.4451172 104.639485,92.2646484 105.180258,91.7232422 L107.88412,88.7455078 L109.957082,90.6404297 L107.253219,93.6181641 C106.261803,94.6107422 105,95.1521484 103.738197,95.1521484 L103.738197,95.1521484 Z" id="XMLID_1847_" fill="#55241A"></path>
                <rect id="XMLID_1843_" fill="#F6861E" x="156.824034" y="44.5306641" width="106.712446" height="20.0320312"></rect>
                <rect id="XMLID_1842_" fill="#55241A" x="163.854077" y="64.4724609" width="1.35193133" height="2.61679688"></rect>
                <rect id="XMLID_1841_" fill="#55241A" x="186.656652" y="64.4724609" width="1.35193133" height="2.61679688"></rect>
                <rect id="XMLID_1840_" fill="#55241A" x="209.549356" y="64.4724609" width="1.35193133" height="2.61679688"></rect>
                <rect id="XMLID_1839_" fill="#55241A" x="232.351931" y="64.4724609" width="1.35193133" height="2.61679688"></rect>
                <rect id="XMLID_1838_" fill="#55241A" x="255.244635" y="64.4724609" width="1.35193133" height="2.61679688"></rect>
                <path d="M165.83691,47.5986328 L171.785408,53.5541016 C172.416309,54.1857422 172.416309,55.0880859 171.785408,55.7197266 L165.83691,61.6751953 C164.845494,62.6677734 163.223176,61.9458984 163.223176,60.5923828 L163.223176,48.7716797 C163.313305,47.3279297 164.935622,46.6060547 165.83691,47.5986328 L165.83691,47.5986328 Z" id="XMLID_1836_" fill="#FFFFFF"></path>
                <path d="M180.167382,47.5986328 L186.11588,53.5541016 C186.746781,54.1857422 186.746781,55.0880859 186.11588,55.7197266 L180.167382,61.6751953 C179.175966,62.6677734 177.553648,61.9458984 177.553648,60.5923828 L177.553648,48.7716797 C177.553648,47.3279297 179.266094,46.6060547 180.167382,47.5986328 L180.167382,47.5986328 Z" id="XMLID_1835_" fill="#F8B000"></path>
                <path d="M194.497854,47.5986328 L200.446352,53.5541016 C201.077253,54.1857422 201.077253,55.0880859 200.446352,55.7197266 L194.497854,61.6751953 C193.506438,62.6677734 191.88412,61.9458984 191.88412,60.5923828 L191.88412,48.7716797 C191.88412,47.3279297 193.506438,46.6060547 194.497854,47.5986328 L194.497854,47.5986328 Z" id="XMLID_1834_" fill="#FFFFFF"></path>
                <path d="M208.828326,47.5986328 L214.776824,53.5541016 C215.407725,54.1857422 215.407725,55.0880859 214.776824,55.7197266 L208.828326,61.6751953 C207.83691,62.6677734 206.214592,61.9458984 206.214592,60.5923828 L206.214592,48.7716797 C206.214592,47.3279297 207.83691,46.6060547 208.828326,47.5986328 L208.828326,47.5986328 Z" id="XMLID_1833_" fill="#F8B000"></path>
                <path d="M223.06867,47.5986328 L229.017167,53.5541016 C229.648069,54.1857422 229.648069,55.0880859 229.017167,55.7197266 L223.06867,61.6751953 C222.077253,62.6677734 220.454936,61.9458984 220.454936,60.5923828 L220.454936,48.7716797 C220.454936,47.3279297 222.167382,46.6060547 223.06867,47.5986328 L223.06867,47.5986328 Z" id="XMLID_1832_" fill="#FFFFFF"></path>
                <path d="M237.399142,47.5986328 L243.347639,53.5541016 C243.978541,54.1857422 243.978541,55.0880859 243.347639,55.7197266 L237.399142,61.6751953 C236.407725,62.6677734 234.785408,61.9458984 234.785408,60.5923828 L234.785408,48.7716797 C234.785408,47.3279297 236.407725,46.6060547 237.399142,47.5986328 L237.399142,47.5986328 Z" id="XMLID_1831_" fill="#F8B000"></path>
                <path d="M251.729614,47.5986328 L257.678112,53.5541016 C258.309013,54.1857422 258.309013,55.0880859 257.678112,55.7197266 L251.729614,61.6751953 C250.738197,62.6677734 249.11588,61.9458984 249.11588,60.5923828 L249.11588,48.7716797 C249.11588,47.3279297 250.738197,46.6060547 251.729614,47.5986328 L251.729614,47.5986328 Z" id="XMLID_1830_" fill="#FFFFFF"></path>
                <rect id="XMLID_1829_" fill="#55241A" x="286.339056" y="77.9173828" width="2.70386266" height="18.4078125"></rect>
                <rect id="XMLID_1828_" fill="#55241A" x="265.699571" y="77.9173828" width="2.70386266" height="18.4078125"></rect>
                <rect id="XMLID_1827_" fill="#55241A" x="267.051502" y="79.6318359" width="20.639485" height="3.51914062"></rect>
                <rect id="XMLID_1826_" fill="#55241A" x="267.051502" y="84.7751953" width="20.639485" height="3.2484375"></rect>
                <rect id="XMLID_1825_" fill="#55241A" x="267.051502" y="90.0087891" width="20.639485" height="3.69960938"></rect>
                <path d="M214.32618,140.540039 C213.515021,140.540039 212.793991,141.17168 212.793991,142.074023 L212.793991,149.292773 L211.532189,149.292773 L211.532189,142.074023 C211.532189,141.261914 210.901288,140.540039 210,140.540039 L210,140.540039 C209.188841,140.540039 208.467811,141.17168 208.467811,142.074023 L208.467811,149.292773 L207.206009,149.292773 L207.206009,142.074023 C207.206009,141.261914 206.575107,140.540039 205.67382,140.540039 L205.67382,140.540039 C204.862661,140.540039 204.141631,141.17168 204.141631,142.074023 L204.141631,149.292773 L204.141631,152.811914 L204.141631,153.533789 L203.150215,153.533789 L203.150215,150.375586 C203.150215,149.653711 202.519313,149.02207 201.798283,149.02207 L201.798283,149.02207 C201.077253,149.02207 200.446352,149.653711 200.446352,150.375586 L200.446352,153.533789 L200.446352,155.60918 L200.446352,155.60918 C200.446352,156.872461 201.437768,157.865039 202.699571,157.865039 L202.699571,157.865039 C203.51073,157.865039 204.141631,158.49668 204.141631,159.308789 L204.141631,161.38418 L215.587983,161.38418 L215.587983,153.894727 L215.587983,149.292773 L215.587983,142.074023 C215.858369,141.261914 215.227468,140.540039 214.32618,140.540039 L214.32618,140.540039 L214.32618,140.540039 Z" id="XMLID_1823_" fill="#FFFFFF"></path>
                <path d="M153.48927,140.630273 C153.48927,138.464648 151.776824,136.750195 149.613734,136.750195 L149.16309,136.750195 L139.248927,146.675977 L129.334764,136.750195 L128.88412,136.750195 C126.72103,136.750195 125.008584,138.464648 125.008584,140.630273 L125.008584,141.081445 L134.922747,151.007227 L125.008584,160.933008 L125.008584,161.38418 C125.008584,163.549805 126.72103,165.264258 128.88412,165.264258 L129.334764,165.264258 L139.248927,155.338477 L149.16309,165.264258 L149.613734,165.264258 C151.776824,165.264258 153.48927,163.549805 153.48927,161.38418 L153.48927,160.933008 L143.575107,151.007227 L153.48927,141.081445 L153.48927,140.630273 L153.48927,140.630273 Z" id="XMLID_1822_" fill="#F6861E"></path>
                <path d="M254.072961,136.750195 L233.253219,136.750195 C231.090129,136.750195 229.377682,138.464648 229.377682,140.630273 L229.377682,148.029492 C229.377682,145.863867 231.090129,144.149414 233.253219,144.149414 L254.072961,144.149414 C256.236052,144.149414 257.948498,145.863867 257.948498,148.029492 L257.948498,140.630273 C257.948498,138.464648 256.145923,136.750195 254.072961,136.750195 L254.072961,136.750195 Z" id="XMLID_1821_" fill="#84D0F0"></path>
                <path d="M254.072961,144.149414 L233.253219,144.149414 C231.090129,144.149414 229.377682,145.863867 229.377682,148.029492 L229.377682,161.38418 C229.377682,163.549805 231.090129,165.264258 233.253219,165.264258 L254.072961,165.264258 C256.236052,165.264258 257.948498,163.549805 257.948498,161.38418 L257.948498,148.029492 C257.948498,145.863867 256.145923,144.149414 254.072961,144.149414 L254.072961,144.149414 Z" id="XMLID_1820_" fill="#55241A"></path>
                <path d="M233.523605,119.425195 L239.832618,108.506836 C240.733906,106.972852 242.896996,106.972852 243.798283,108.506836 L250.107296,119.425195 C251.008584,120.95918 249.927039,122.854102 248.124464,122.854102 L235.596567,122.854102 C233.703863,122.854102 232.622318,120.868945 233.523605,119.425195 L233.523605,119.425195 Z" id="XMLID_1819_" fill="#F8B000"></path>
                <path d="M241.725322,117.981445 L241.725322,117.981445 C241.184549,117.981445 240.733906,117.530273 240.733906,116.988867 L240.733906,111.123633 C240.733906,110.582227 241.184549,110.131055 241.725322,110.131055 L241.725322,110.131055 C242.266094,110.131055 242.716738,110.582227 242.716738,111.123633 L242.716738,116.988867 C242.806867,117.530273 242.356223,117.981445 241.725322,117.981445 L241.725322,117.981445 Z" id="XMLID_1818_" fill="#FFFFFF"></path>
                <path d="M241.725322,121.410352 L241.725322,121.410352 C241.184549,121.410352 240.733906,120.95918 240.733906,120.417773 L240.733906,120.327539 C240.733906,119.786133 241.184549,119.334961 241.725322,119.334961 L241.725322,119.334961 C242.266094,119.334961 242.716738,119.786133 242.716738,120.327539 L242.716738,120.417773 C242.806867,120.95918 242.356223,121.410352 241.725322,121.410352 L241.725322,121.410352 Z" id="XMLID_1817_" fill="#FFFFFF"></path>
                <rect id="XMLID_1815_" fill="#84D0F0" x="240.733906" y="122.854102" width="1.98283262" height="12.1816406"></rect>
                <rect id="XMLID_1814_" fill="#0091E6" x="240.733906" y="122.854102" width="1.98283262" height="2.61679688"></rect>
                <polygon id="XMLID_1813_" fill="#DEE57B" points="355.55794 127.185352 394.583691 127.185352 394.583691 143.878711 325.995708 151.548633"></polygon>
                <path d="M373.313305,121.861523 C373.313305,117.981445 369.978541,114.913477 366.012876,115.364648 C364.030043,115.545117 362.227468,116.898633 361.145923,118.613086 C360.244635,120.237305 360.064378,121.681055 360.334764,123.124805 C359.072961,122.583398 357.540773,122.673633 356.008584,123.575977 C354.656652,124.388086 353.935622,125.92207 354.025751,127.456055 L354.025751,127.456055 L374.845494,127.456055 L374.845494,127.456055 C374.845494,126.373242 374.665236,125.29043 374.214592,124.297852 L373.313305,121.861523 L373.313305,121.861523 Z" id="XMLID_1812_" fill="#9EC300"></path>
                <path d="M79.7639485,52.8322266 L71.5622318,61.0435547 C70.751073,61.8556641 69.3991416,61.8556641 68.5879828,61.0435547 L60.3862661,52.8322266 C59.0343348,51.4787109 60.0257511,49.2228516 61.8283262,49.2228516 L78.2317597,49.2228516 C80.2145923,49.2228516 81.1158798,51.4787109 79.7639485,52.8322266 L79.7639485,52.8322266 Z" id="XMLID_1806_" fill="#55241A"></path>
                <rect id="XMLID_1805_" fill="#FFFFFF" x="304.004292" y="106.341211" width="17.0343348" height="21.0246094"></rect>
                <rect id="XMLID_1804_" fill="#0091E6" x="305.536481" y="109.228711" width="13.8798283" height="1.0828125"></rect>
                <rect id="XMLID_1803_" fill="#0091E6" x="305.536481" y="111.755273" width="13.8798283" height="1.0828125"></rect>
                <rect id="XMLID_1802_" fill="#0091E6" x="305.536481" y="114.281836" width="13.8798283" height="1.0828125"></rect>
                <rect id="XMLID_1801_" fill="#0091E6" x="305.536481" y="116.808398" width="13.8798283" height="1.0828125"></rect>
                <rect id="XMLID_1800_" fill="#0091E6" x="305.536481" y="119.425195" width="6.93991416" height="1.0828125"></rect>
                <path d="M312.83691,125.200195 C312.476395,124.47832 312.83691,123.485742 313.648069,123.215039 C314.369099,122.944336 315.360515,123.395508 315.630901,124.117383 C315.72103,124.47832 315.72103,124.929492 315.630901,125.29043 C315.630901,125.470898 315.630901,125.561133 315.450644,125.651367 C315.180258,125.831836 314.909871,125.470898 314.819742,125.109961 C314.639485,124.207617 314.549356,123.124805 315.270386,122.493164 C315.72103,122.132227 316.44206,122.132227 316.982833,122.493164 C317.523605,122.854102 317.793991,123.395508 317.88412,124.027148 C317.88412,124.297852 317.88412,124.568555 317.703863,124.839258 C317.523605,125.109961 317.16309,125.109961 316.982833,124.929492 C316.802575,124.749023 316.802575,124.388086 316.892704,124.117383 C317.253219,123.124805 318.064378,122.312695 319.055794,121.951758" id="XMLID_1799_" stroke="#0091E6" stroke-width="0.5"></path>
                <path d="M376.55794,57.0732422 L376.55794,57.0732422 L374.484979,46.6060547 C374.214592,45.3427734 375.206009,44.1697266 376.55794,44.1697266 L376.55794,44.1697266 C377.909871,44.1697266 378.811159,45.3427734 378.630901,46.6060547 L376.55794,57.0732422 L376.55794,57.0732422 Z" id="XMLID_1798_" fill="#F8B000"></path>
                <path d="M357.450644,64.2017578 L357.450644,64.2017578 L348.618026,58.2462891 C347.536481,57.5244141 347.356223,55.9904297 348.347639,55.0880859 L348.347639,55.0880859 C349.248927,54.1857422 350.781116,54.2759766 351.502146,55.3587891 L357.450644,64.2017578 L357.450644,64.2017578 Z" id="XMLID_1797_" fill="#F8B000"></path>
                <path d="M349.429185,82.9705078 L349.429185,82.9705078 L338.974249,85.0458984 C337.712446,85.3166016 336.540773,84.3240234 336.540773,82.9705078 L336.540773,82.9705078 C336.540773,81.6169922 337.712446,80.7146484 338.974249,80.8951172 L349.429185,82.9705078 L349.429185,82.9705078 Z" id="XMLID_1796_" fill="#F8B000"></path>
                <path d="M402.424893,84.2337891 L402.424893,84.2337891 L412.879828,82.1583984 C414.141631,81.8876953 415.313305,82.8802734 415.313305,84.2337891 L415.313305,84.2337891 C415.313305,85.5873047 414.141631,86.4896484 412.879828,86.3091797 L402.424893,84.2337891 L402.424893,84.2337891 Z" id="XMLID_1795_" fill="#F8B000"></path>
                <path d="M395.304721,65.1041016 L395.304721,65.1041016 L401.253219,56.2611328 C401.974249,55.1783203 403.506438,54.9978516 404.407725,55.9904297 L404.407725,55.9904297 C405.309013,56.8927734 405.218884,58.4267578 404.137339,59.1486328 L395.304721,65.1041016 L395.304721,65.1041016 Z" id="XMLID_1794_" fill="#F8B000"></path>
                <polygon id="XMLID_1791_" fill="#FFFFFF" points="139.248927 108.326367 128.793991 122.40293 149.793991 122.40293"></polygon>
                <path d="M59.7553648,81.7974609 L80.3948498,81.7974609" id="XMLID_1790_" stroke="#FFFFFF" stroke-width="4"></path>
                <polyline id="XMLID_1789_" stroke="#FFFFFF" stroke-width="4" points="75.4377682 76.9248047 80.4849785 82.0681641 75.4377682 87.1212891"></polyline>
                <polyline id="XMLID_1788_" stroke="#FFFFFF" stroke-width="4" points="64.9828326 76.9248047 59.8454936 82.0681641 64.9828326 87.1212891"></polyline>
                <rect id="XMLID_1786_" fill="#FFFFFF" x="185.575107" y="181.777148" width="17.8454936" height="27.6117188"></rect>
                <path d="M190.802575,209.388867 L177.012876,209.388867 C175.480687,209.388867 174.218884,208.125586 174.218884,206.591602 L174.218884,184.48418 C174.218884,182.950195 175.480687,181.686914 177.012876,181.686914 L190.802575,181.686914 C192.334764,181.686914 193.596567,182.950195 193.596567,184.48418 L193.596567,206.591602 C193.596567,208.21582 192.334764,209.388867 190.802575,209.388867 L190.802575,209.388867 Z" id="XMLID_1785_" fill="#00AAE6"></path>
                <path d="M196.390558,209.388867 L209.098712,209.388867 C210.630901,209.388867 211.892704,208.125586 211.892704,206.591602 L211.892704,184.48418 C211.892704,182.950195 210.630901,181.686914 209.098712,181.686914 L196.390558,181.686914 C194.858369,181.686914 193.596567,182.950195 193.596567,184.48418 L193.596567,206.591602 C193.596567,208.21582 194.858369,209.388867 196.390558,209.388867 L196.390558,209.388867 Z" id="XMLID_1784_" fill="#84D0F0"></path>
                <ellipse id="XMLID_1783_" fill="#FFFFFF" cx="206.575107" cy="187.822852" rx="1.98283262" ry="1.98515625"></ellipse>
                <ellipse id="XMLID_1782_" fill="#FFFFFF" cx="199.274678" cy="203.433398" rx="1.98283262" ry="1.98515625"></ellipse>
                <ellipse id="XMLID_1781_" fill="#FFFFFF" cx="202.879828" cy="195.583008" rx="1.98283262" ry="1.98515625"></ellipse>
                <ellipse id="XMLID_1779_" fill="#FFFFFF" cx="183.95279" cy="195.583008" rx="1.98283262" ry="1.98515625"></ellipse>
                <path d="M289.133047,63.0287109 L289.763948,63.0287109 C291.746781,63.0287109 293.369099,61.4044922 293.369099,59.4193359 L293.369099,54.9978516 C293.369099,54.6369141 293.098712,54.2759766 292.648069,54.2759766 C292.197425,54.2759766 291.927039,54.5466797 291.927039,54.9978516 L291.927039,59.4193359 C291.927039,60.6826172 290.935622,61.6751953 289.67382,61.6751953 L289.042918,61.6751953 C288.682403,61.6751953 288.321888,61.9458984 288.321888,62.3970703 C288.412017,62.6677734 288.682403,63.0287109 289.133047,63.0287109 L289.133047,63.0287109 Z" id="XMLID_1776_" fill="#55241A"></path>
                <rect id="XMLID_1774_" fill="#55241A" x="288.321888" y="58.0658203" width="1.53218884" height="12.6328125"></rect>
                <path d="M289.133047,58.6974609 L289.133047,58.6974609 C294.180258,58.6974609 298.236052,54.6369141 298.236052,49.5837891 L298.236052,32.8001953 C298.236052,27.7470703 294.180258,23.6865234 289.133047,23.6865234 L289.133047,23.6865234 C284.085837,23.6865234 280.030043,27.7470703 280.030043,32.8001953 L280.030043,49.5837891 C279.939914,54.5466797 284.085837,58.6974609 289.133047,58.6974609 L289.133047,58.6974609 Z" id="XMLID_1769_" fill="#9EC300"></path>
                <path d="M289.133047,23.5962891 L289.133047,23.5962891 C293.369099,23.5962891 296.974249,26.4837891 297.965665,30.3638672 C297.154506,28.2884766 295.171674,26.7544922 292.738197,26.7544922 C289.67382,26.7544922 287.240343,29.1908203 287.150215,32.2587891 L287.150215,45.7037109 C287.150215,48.7716797 284.626609,51.2982422 281.562232,51.2982422 L281.562232,51.2982422 C281.021459,51.2982422 280.570815,51.2080078 280.030043,51.1177734 C279.939914,50.5763672 279.849785,50.0349609 279.849785,49.4033203 L279.849785,32.8001953 C279.939914,27.7470703 284.085837,23.5962891 289.133047,23.5962891 L289.133047,23.5962891 Z" id="XMLID_1766_" fill="#C0CE06"></path>
                <rect id="XMLID_1762_" fill="#55241A" x="100.403433" y="35.2365234" width="2.25321888" height="8.84296875"></rect>
                <path d="M91.1201717,33.6123047 L100.223176,0.947460937 C100.583691,-0.315820312 102.386266,-0.315820312 102.746781,0.947460937 L111.849785,33.6123047 C112.120172,34.6951172 111.309013,35.8681641 110.137339,35.8681641 L92.7424893,35.8681641 C91.6609442,35.7779297 90.8497854,34.6951172 91.1201717,33.6123047 L91.1201717,33.6123047 Z" id="XMLID_1761_" fill="#C0CE06"></path>
                <path d="M103.377682,3.02285156 L103.377682,3.02285156 C102.476395,3.02285156 101.845494,3.74472656 101.935622,4.64707031 L104.188841,25.4009766 C104.549356,28.9201172 101.845494,32.0783203 98.2403433,32.0783203 L91.5708155,32.0783203 L91.1201717,33.6123047 C90.8497854,34.6951172 91.6609442,35.8681641 92.832618,35.8681641 L110.227468,35.8681641 C111.399142,35.8681641 112.2103,34.7853516 111.939914,33.6123047 L103.377682,3.02285156 L103.377682,3.02285156 Z" id="XMLID_1760_" fill="#9EC300"></path>
                <rect id="XMLID_1758_" fill="#55241A" x="100.313305" y="159.579492" width="2.52360515" height="13.6253906"></rect>
                <path d="M93.193133,149.292773 C94.1845494,147.758789 94.4549356,145.954102 94.0042918,144.239648 C93.8240343,143.608008 93.7339056,142.886133 93.7339056,142.164258 C93.7339056,140.630273 94.1845494,139.096289 94.9957082,137.923242 C95.806867,136.659961 95.9871245,135.125977 95.6266094,133.682227 C95.5364807,133.231055 95.4463519,132.689648 95.4463519,132.238477 C95.4463519,128.80957 98.3304721,126.012305 101.755365,126.102539 C105,126.192773 107.613734,128.899805 107.613734,132.238477 C107.613734,132.779883 107.523605,133.231055 107.433476,133.682227 C107.072961,135.125977 107.253219,136.659961 108.064378,137.923242 C108.875536,139.186523 109.32618,140.630273 109.32618,142.164258 C109.32618,142.886133 109.236052,143.608008 109.055794,144.239648 C108.60515,145.954102 108.875536,147.758789 109.776824,149.202539 C110.858369,150.916992 111.48927,152.902148 111.309013,155.067773 C111.038627,160.301367 106.712446,164.361914 101.484979,164.452148 C95.9871245,164.452148 91.5708155,160.030664 91.5708155,154.616602 C91.6609442,152.631445 92.2017167,150.826758 93.193133,149.292773 L93.193133,149.292773 Z" id="XMLID_1757_" fill="#C0CE06"></path>
                <path d="M109.776824,149.112305 C108.785408,147.668555 108.695279,145.773633 109.145923,144.05918 C109.32618,143.427539 109.416309,142.795898 109.416309,142.074023 C109.416309,140.540039 108.965665,139.096289 108.244635,137.923242 C107.433476,136.659961 107.072961,135.125977 107.433476,133.591992 C107.523605,133.14082 107.613734,132.599414 107.613734,132.058008 C107.613734,131.336133 107.433476,130.614258 107.253219,129.982617 L105.901288,129.982617 C103.467811,129.982617 101.484979,131.967773 101.484979,134.404102 L101.484979,152.992383 C101.484979,156.601758 98.5107296,159.579492 94.9055794,159.579492 L93.0128755,159.579492 C94.9055794,162.737695 98.5107296,164.722852 102.566524,164.361914 C106.982833,163.910742 110.587983,160.481836 111.218884,156.060352 C111.669528,153.533789 111.038627,151.097461 109.776824,149.112305 L109.776824,149.112305 Z" id="XMLID_1755_" fill="#9EC300"></path>
                <rect id="XMLID_1752_" fill="#55241A" x="17.6652361" y="128.538867" width="2.61373391" height="14.1667969"></rect>
                <path d="M10.1845494,117.800977 C11.1759657,116.266992 11.5364807,114.37207 10.9957082,112.567383 C10.8154506,111.845508 10.7253219,111.123633 10.7253219,110.401758 C10.7253219,108.777539 11.1759657,107.243555 12.0772532,105.980273 C12.888412,104.716992 13.1587983,103.092773 12.7982833,101.558789 C12.7081545,101.107617 12.6180258,100.566211 12.6180258,100.024805 C12.6180258,96.5056641 15.5922747,93.6181641 19.1072961,93.7083984 C22.5321888,93.7986328 25.2360515,96.5958984 25.2360515,100.024805 C25.2360515,100.566211 25.1459227,101.107617 25.055794,101.558789 C24.695279,103.092773 24.8755365,104.626758 25.776824,105.980273 C26.5879828,107.243555 27.1287554,108.777539 27.1287554,110.401758 C27.1287554,111.123633 27.0386266,111.935742 26.8583691,112.567383 C26.4077253,114.281836 26.6781116,116.176758 27.5793991,117.710742 C28.751073,119.425195 29.2918455,121.59082 29.2017167,123.84668 C28.9313305,129.260742 24.4248927,133.591992 19.0171674,133.591992 C13.3390558,133.591992 8.74248927,128.990039 8.74248927,123.305273 C8.65236052,121.320117 9.19313305,119.425195 10.1845494,117.800977 L10.1845494,117.800977 Z" id="XMLID_1751_" fill="#C0CE06"></path>
                <path d="M27.3991416,117.710742 C26.4077253,116.176758 26.2274678,114.281836 26.7682403,112.477148 C26.9484979,111.845508 27.0386266,111.123633 27.0386266,110.401758 C27.0386266,108.867773 26.5879828,107.333789 25.776824,106.070508 C24.9656652,104.716992 24.6051502,103.092773 24.9656652,101.558789 C25.1459227,101.017383 25.1459227,100.475977 25.1459227,99.9345703 C25.1459227,99.1224609 24.9656652,98.4005859 24.7854077,97.7689453 L23.4334764,97.7689453 C20.9098712,97.7689453 18.8369099,99.8443359 18.8369099,102.370898 L18.8369099,121.681055 C18.8369099,125.470898 15.7725322,128.538867 11.9871245,128.538867 L10.0042918,128.538867 C11.9871245,131.787305 15.6824034,133.95293 19.9184549,133.501758 C24.4248927,133.050586 28.2103004,129.441211 28.9313305,124.929492 C29.472103,122.222461 28.751073,119.695898 27.3991416,117.710742 L27.3991416,117.710742 Z" id="XMLID_1749_" fill="#9EC300"></path>
                <rect id="XMLID_1746_" fill="#55241A" x="403.686695" y="128.629102" width="2.16309013" height="12.0011719"></rect>
                <path d="M397.467811,119.605664 C398.27897,118.252148 398.549356,116.718164 398.188841,115.18418 C398.008584,114.552539 397.918455,114.011133 397.918455,113.379492 C397.918455,112.025977 398.369099,110.672461 399,109.679883 C399.72103,108.59707 399.901288,107.243555 399.540773,105.980273 C399.450644,105.529102 399.360515,105.168164 399.360515,104.716992 C399.360515,101.739258 401.88412,99.3029297 404.858369,99.3931641 C407.742489,99.4833984 409.995708,101.829492 409.995708,104.716992 C409.995708,105.168164 409.905579,105.619336 409.815451,105.980273 C409.454936,107.243555 409.725322,108.59707 410.356223,109.679883 C411.077253,110.762695 411.437768,112.025977 411.437768,113.379492 C411.437768,114.011133 411.347639,114.642773 411.167382,115.18418 C410.716738,116.62793 410.987124,118.252148 411.798283,119.51543 C412.7897,120.95918 413.240343,122.763867 413.150215,124.658789 C412.879828,129.170508 409.094421,132.870117 404.587983,132.870117 C399.811159,132.870117 395.935622,128.990039 395.935622,124.207617 C396.11588,122.583398 396.566524,120.95918 397.467811,119.605664 L397.467811,119.605664 Z" id="XMLID_1745_" fill="#C0CE06"></path>
                <path d="M411.978541,119.51543 C411.167382,118.252148 410.987124,116.62793 411.437768,115.093945 C411.618026,114.552539 411.618026,113.920898 411.618026,113.379492 C411.618026,112.025977 411.257511,110.762695 410.626609,109.770117 C409.905579,108.59707 409.635193,107.333789 409.995708,105.980273 C410.085837,105.529102 410.175966,105.07793 410.175966,104.626758 C410.175966,103.995117 410.085837,103.363477 409.815451,102.82207 L408.643777,102.82207 C406.480687,102.82207 404.76824,104.536523 404.76824,106.702148 L404.76824,123.03457 C404.76824,126.192773 402.154506,128.80957 399,128.80957 L397.377682,128.80957 C399,131.606836 402.154506,133.321289 405.759657,132.960352 C409.635193,132.50918 412.7897,129.531445 413.330472,125.741602 C413.600858,123.305273 413.060086,121.229883 411.978541,119.51543 L411.978541,119.51543 Z" id="XMLID_1737_" fill="#9EC300"></path>
                <rect id="XMLID_1680_" fill="#55241A" x="219.012876" y="196.395117" width="3.06437768" height="16.603125"></rect>
                <path d="M210.360515,183.942773 C211.532189,182.138086 211.892704,179.882227 211.351931,177.806836 C211.081545,176.994727 210.991416,176.092383 210.991416,175.280273 C210.991416,173.385352 211.532189,171.580664 212.523605,170.04668 C213.515021,168.512695 213.785408,166.617773 213.334764,164.90332 C213.154506,164.361914 213.154506,163.730273 213.154506,163.098633 C213.154506,158.947852 216.669528,155.518945 220.815451,155.699414 C224.781116,155.789648 228.025751,159.12832 228.025751,163.098633 C228.025751,163.730273 227.935622,164.361914 227.845494,164.90332 C227.39485,166.708008 227.665236,168.512695 228.656652,170.04668 C229.648069,171.580664 230.188841,173.295117 230.188841,175.280273 C230.188841,176.182617 230.098712,176.994727 229.828326,177.806836 C229.287554,179.882227 229.55794,182.047852 230.729614,183.852539 C232.081545,185.92793 232.802575,188.364258 232.622318,190.981055 C232.261803,197.297461 227.034335,202.350586 220.725322,202.350586 C214.055794,202.350586 208.648069,197.026758 208.648069,190.349414 C208.467811,188.00332 209.188841,185.747461 210.360515,183.942773 L210.360515,183.942773 Z" id="XMLID_1678_" fill="#C0CE06"></path>
                <path d="M230.549356,183.762305 C229.377682,181.957617 229.197425,179.701758 229.738197,177.626367 C229.918455,176.904492 230.008584,176.092383 230.008584,175.190039 C230.008584,173.385352 229.467811,171.580664 228.566524,170.136914 C227.575107,168.60293 227.124464,166.708008 227.665236,164.90332 C227.845494,164.27168 227.935622,163.640039 227.935622,163.008398 C227.935622,162.106055 227.755365,161.293945 227.484979,160.481836 L225.862661,160.481836 C222.888412,160.481836 220.545064,162.918164 220.545064,165.805664 L220.545064,188.454492 C220.545064,192.875977 216.939914,196.485352 212.523605,196.485352 L210.270386,196.485352 C212.613734,200.36543 216.939914,202.801758 221.896996,202.260352 C227.214592,201.718945 231.630901,197.47793 232.44206,192.244336 C232.802575,189.086133 232.081545,186.108398 230.549356,183.762305 L230.549356,183.762305 Z" id="XMLID_1673_" fill="#9EC300"></path>
            </g>
        </g>
    </g>
</svg>